<?xml version="1.0" encoding="utf-8"?>
<!-- Generator: Adobe Illustrator 18.1.1, SVG Export Plug-In . SVG Version: 6.00 Build 0)  -->
<svg version="1.1" id="Layer_1" xmlns="http://www.w3.org/2000/svg" xmlns:xlink="http://www.w3.org/1999/xlink" x="0px" y="0px"
	 viewBox="0 0 1043.7 581" enable-background="new 0 0 1043.7 581" xml:space="preserve">
<g>
	<path fill="#FFFFFF" d="M693.7,267c-0.1-0.6-0.3-1.2-0.5-1.7c-0.2-0.5-0.5-1-0.9-1.4c-0.4-0.4-0.9-0.7-1.4-1
		c-0.6-0.2-1.3-0.4-2.1-0.4c-0.8,0-1.5,0.1-2.1,0.4c-0.6,0.2-1.1,0.6-1.4,1c-0.4,0.4-0.7,0.9-0.9,1.4c-0.2,0.5-0.4,1.1-0.5,1.7
		c-0.1,0.6-0.2,1.2-0.2,1.8c0,0.6,0,1.2,0,1.8s0,1.2,0,1.8c0,0.6,0.1,1.2,0.2,1.8c0.1,0.6,0.3,1.1,0.5,1.7c0.2,0.5,0.5,1,0.9,1.4
		c0.4,0.4,0.9,0.7,1.4,0.9s1.3,0.3,2.1,0.3c0.8,0,1.5-0.1,2.1-0.3c0.6-0.2,1.1-0.5,1.4-0.9c0.4-0.4,0.7-0.9,0.9-1.4
		c0.2-0.5,0.4-1.1,0.5-1.7s0.2-1.2,0.2-1.8c0-0.6,0-1.2,0-1.8s0-1.2,0-1.8C693.9,268.1,693.8,267.5,693.7,267z M691.9,272.5
		c0,0.7-0.2,1.4-0.4,2.1c-0.2,0.6-0.5,1.2-1,1.6c-0.4,0.4-1.1,0.7-1.9,0.7c-0.8,0-1.4-0.2-1.9-0.7c-0.4-0.4-0.8-1-1-1.6
		s-0.3-1.3-0.4-2.1c0-0.7-0.1-1.4-0.1-2c0-0.4,0-0.8,0-1.3c0-0.5,0-0.9,0.1-1.4c0.1-0.5,0.2-0.9,0.3-1.4c0.1-0.4,0.3-0.8,0.6-1.2
		c0.2-0.3,0.5-0.6,0.9-0.8c0.4-0.2,0.8-0.3,1.4-0.3c0.5,0,1,0.1,1.3,0.3c0.4,0.2,0.7,0.5,0.9,0.8c0.2,0.3,0.4,0.7,0.6,1.2
		c0.1,0.4,0.2,0.9,0.3,1.4c0.1,0.5,0.1,0.9,0.1,1.4c0,0.5,0,0.9,0,1.3C691.9,271.1,691.9,271.8,691.9,272.5z"/>
	<path fill="#FFFFFF" d="M707.3,267c-0.1-0.6-0.3-1.2-0.5-1.7c-0.2-0.5-0.5-1-0.9-1.4c-0.4-0.4-0.9-0.7-1.4-1
		c-0.6-0.2-1.3-0.4-2.1-0.4c-0.8,0-1.5,0.1-2.1,0.4c-0.6,0.2-1.1,0.6-1.4,1c-0.4,0.4-0.7,0.9-0.9,1.4c-0.2,0.5-0.4,1.1-0.5,1.7
		c-0.1,0.6-0.2,1.2-0.2,1.8c0,0.6,0,1.2,0,1.8s0,1.2,0,1.8c0,0.6,0.1,1.2,0.2,1.8c0.1,0.6,0.3,1.1,0.5,1.7c0.2,0.5,0.5,1,0.9,1.4
		c0.4,0.4,0.9,0.7,1.4,0.9s1.3,0.3,2.1,0.3c0.8,0,1.5-0.1,2.1-0.3c0.6-0.2,1.1-0.5,1.4-0.9c0.4-0.4,0.7-0.9,0.9-1.4
		c0.2-0.5,0.4-1.1,0.5-1.7s0.2-1.2,0.2-1.8c0-0.6,0-1.2,0-1.8s0-1.2,0-1.8C707.5,268.1,707.4,267.5,707.3,267z M705.5,272.5
		c0,0.7-0.2,1.4-0.4,2.1c-0.2,0.6-0.5,1.2-1,1.6c-0.4,0.4-1.1,0.7-1.9,0.7c-0.8,0-1.4-0.2-1.9-0.7c-0.4-0.4-0.8-1-1-1.6
		s-0.3-1.3-0.4-2.1c0-0.7-0.1-1.4-0.1-2c0-0.4,0-0.8,0-1.3c0-0.5,0-0.9,0.1-1.4c0.1-0.5,0.2-0.9,0.3-1.4c0.1-0.4,0.3-0.8,0.6-1.2
		c0.2-0.3,0.5-0.6,0.9-0.8c0.4-0.2,0.8-0.3,1.4-0.3c0.5,0,1,0.1,1.3,0.3c0.4,0.2,0.7,0.5,0.9,0.8c0.2,0.3,0.4,0.7,0.6,1.2
		c0.1,0.4,0.2,0.9,0.3,1.4c0.1,0.5,0.1,0.9,0.1,1.4c0,0.5,0,0.9,0,1.3C705.6,271.1,705.6,271.8,705.5,272.5z"/>
	<path fill="#FFFFFF" d="M715.8,278.3h1.9v-15.7h-1.4c-0.1,0.6-0.3,1.1-0.6,1.5c-0.3,0.4-0.6,0.7-1,0.9s-0.9,0.4-1.4,0.5
		c-0.5,0.1-1,0.1-1.5,0.1v1.5h4.1V278.3z"/>
	<path fill="#FFFFFF" d="M729.4,278.3h1.9v-15.7h-1.4c-0.1,0.6-0.3,1.1-0.6,1.5c-0.3,0.4-0.6,0.7-1,0.9c-0.4,0.2-0.9,0.4-1.4,0.5
		c-0.5,0.1-1,0.1-1.5,0.1v1.5h4.1V278.3z"/>
	<path fill="#FFFFFF" d="M738.3,274.2c0.1,0.6,0.3,1.1,0.5,1.7c0.2,0.5,0.5,1,0.9,1.4c0.4,0.4,0.9,0.7,1.4,0.9
		c0.6,0.2,1.3,0.3,2.1,0.3c0.8,0,1.5-0.1,2.1-0.3s1.1-0.5,1.4-0.9s0.7-0.9,0.9-1.4c0.2-0.5,0.4-1.1,0.5-1.7s0.2-1.2,0.2-1.8
		c0-0.6,0-1.2,0-1.8s0-1.2,0-1.8c0-0.6-0.1-1.2-0.2-1.8s-0.3-1.2-0.5-1.7c-0.2-0.5-0.5-1-0.9-1.4s-0.9-0.7-1.4-1
		c-0.6-0.2-1.3-0.4-2.1-0.4c-0.8,0-1.5,0.1-2.1,0.4c-0.6,0.2-1.1,0.6-1.4,1c-0.4,0.4-0.7,0.9-0.9,1.4c-0.2,0.5-0.4,1.1-0.5,1.7
		c-0.1,0.6-0.2,1.2-0.2,1.8c0,0.6,0,1.2,0,1.8s0,1.2,0,1.8C738.1,273,738.2,273.6,738.3,274.2z M740,269.3c0-0.5,0-0.9,0.1-1.4
		c0.1-0.5,0.2-0.9,0.3-1.4c0.1-0.4,0.3-0.8,0.6-1.2c0.2-0.3,0.5-0.6,0.9-0.8c0.4-0.2,0.8-0.3,1.3-0.3s1,0.1,1.3,0.3
		c0.4,0.2,0.7,0.5,0.9,0.8c0.2,0.3,0.4,0.7,0.6,1.2c0.1,0.4,0.2,0.9,0.3,1.4c0.1,0.5,0.1,0.9,0.1,1.4c0,0.5,0,0.9,0,1.3
		c0,0.6,0,1.2-0.1,2c0,0.7-0.2,1.4-0.4,2.1s-0.5,1.2-1,1.6c-0.4,0.4-1.1,0.7-1.9,0.7s-1.4-0.2-1.9-0.7c-0.4-0.4-0.8-1-1-1.6
		s-0.3-1.3-0.4-2.1c0-0.7-0.1-1.4-0.1-2C740,270.2,740,269.7,740,269.3z"/>
	<path fill="#FFFFFF" d="M758.6,278.3v-15.7h-1.4c-0.1,0.6-0.3,1.1-0.6,1.5c-0.3,0.4-0.6,0.7-1,0.9c-0.4,0.2-0.9,0.4-1.4,0.5
		c-0.5,0.1-1,0.1-1.5,0.1v1.5h4.1v11.2H758.6z"/>
	<path fill="#FFFFFF" d="M775.5,274.2c0.1-0.6,0.2-1.2,0.2-1.8c0-0.6,0-1.2,0-1.8s0-1.2,0-1.8c0-0.6-0.1-1.2-0.2-1.8
		s-0.3-1.2-0.5-1.7c-0.2-0.5-0.5-1-0.9-1.4s-0.9-0.7-1.4-1c-0.6-0.2-1.3-0.4-2.1-0.4c-0.8,0-1.5,0.1-2.1,0.4c-0.6,0.2-1.1,0.6-1.4,1
		c-0.4,0.4-0.7,0.9-0.9,1.4c-0.2,0.5-0.4,1.1-0.5,1.7c-0.1,0.6-0.2,1.2-0.2,1.8c0,0.6,0,1.2,0,1.8s0,1.2,0,1.8
		c0,0.6,0.1,1.2,0.2,1.8c0.1,0.6,0.3,1.1,0.5,1.7c0.2,0.5,0.5,1,0.9,1.4c0.4,0.4,0.9,0.7,1.4,0.9c0.6,0.2,1.3,0.3,2.1,0.3
		c0.8,0,1.5-0.1,2.1-0.3s1.1-0.5,1.4-0.9s0.7-0.9,0.9-1.4C775.2,275.3,775.3,274.8,775.5,274.2z M773.7,272.5c0,0.7-0.2,1.4-0.4,2.1
		s-0.5,1.2-1,1.6c-0.4,0.4-1.1,0.7-1.9,0.7s-1.4-0.2-1.9-0.7c-0.4-0.4-0.8-1-1-1.6s-0.3-1.3-0.4-2.1c0-0.7-0.1-1.4-0.1-2
		c0-0.4,0-0.8,0-1.3c0-0.5,0-0.9,0.1-1.4c0.1-0.5,0.2-0.9,0.3-1.4c0.1-0.4,0.3-0.8,0.6-1.2c0.2-0.3,0.5-0.6,0.9-0.8
		c0.4-0.2,0.8-0.3,1.3-0.3s1,0.1,1.3,0.3c0.4,0.2,0.7,0.5,0.9,0.8c0.2,0.3,0.4,0.7,0.6,1.2c0.1,0.4,0.2,0.9,0.3,1.4
		c0.1,0.5,0.1,0.9,0.1,1.4c0,0.5,0,0.9,0,1.3C773.7,271.1,773.7,271.8,773.7,272.5z"/>
	<path fill="#FFFFFF" d="M783.9,264c-0.3,0.4-0.6,0.7-1,0.9c-0.4,0.2-0.9,0.4-1.4,0.5c-0.5,0.1-1,0.1-1.5,0.1v1.5h4.1v11.2h1.9
		v-15.7h-1.4C784.3,263.2,784.1,263.6,783.9,264z"/>
	<path fill="#FFFFFF" d="M802.7,267c-0.1-0.6-0.3-1.2-0.5-1.7c-0.2-0.5-0.5-1-0.9-1.4s-0.9-0.7-1.4-1c-0.6-0.2-1.3-0.4-2.1-0.4
		c-0.8,0-1.5,0.1-2.1,0.4c-0.6,0.2-1.1,0.6-1.4,1c-0.4,0.4-0.7,0.9-0.9,1.4c-0.2,0.5-0.4,1.1-0.5,1.7c-0.1,0.6-0.2,1.2-0.2,1.8
		c0,0.6,0,1.2,0,1.8s0,1.2,0,1.8c0,0.6,0.1,1.2,0.2,1.8c0.1,0.6,0.3,1.1,0.5,1.7c0.2,0.5,0.5,1,0.9,1.4c0.4,0.4,0.9,0.7,1.4,0.9
		c0.6,0.2,1.3,0.3,2.1,0.3c0.8,0,1.5-0.1,2.1-0.3s1.1-0.5,1.4-0.9s0.7-0.9,0.9-1.4c0.2-0.5,0.4-1.1,0.5-1.7s0.2-1.2,0.2-1.8
		c0-0.6,0-1.2,0-1.8s0-1.2,0-1.8C802.9,268.1,802.8,267.5,802.7,267z M800.9,272.5c0,0.7-0.2,1.4-0.4,2.1s-0.5,1.2-1,1.6
		c-0.4,0.4-1.1,0.7-1.9,0.7s-1.4-0.2-1.9-0.7c-0.4-0.4-0.8-1-1-1.6s-0.3-1.3-0.4-2.1c0-0.7-0.1-1.4-0.1-2c0-0.4,0-0.8,0-1.3
		c0-0.5,0-0.9,0.1-1.4c0.1-0.5,0.2-0.9,0.3-1.4c0.1-0.4,0.3-0.8,0.6-1.2c0.2-0.3,0.5-0.6,0.9-0.8c0.4-0.2,0.8-0.3,1.3-0.3
		s1,0.1,1.3,0.3c0.4,0.2,0.7,0.5,0.9,0.8c0.2,0.3,0.4,0.7,0.6,1.2c0.1,0.4,0.2,0.9,0.3,1.4c0.1,0.5,0.1,0.9,0.1,1.4
		c0,0.5,0,0.9,0,1.3C801,271.1,801,271.8,800.9,272.5z"/>
	<path fill="#FFFFFF" d="M811.1,264c-0.3,0.4-0.6,0.7-1,0.9c-0.4,0.2-0.9,0.4-1.4,0.5c-0.5,0.1-1,0.1-1.5,0.1v1.5h4.1v11.2h1.9
		v-15.7h-1.4C811.6,263.2,811.4,263.6,811.1,264z"/>
	<path fill="#FFFFFF" d="M824.8,264c-0.3,0.4-0.6,0.7-1,0.9c-0.4,0.2-0.9,0.4-1.4,0.5c-0.5,0.1-1,0.1-1.5,0.1v1.5h4.1v11.2h1.9
		v-15.7h-1.4C825.2,263.2,825,263.6,824.8,264z"/>
	<path fill="#FFFFFF" d="M838.4,264c-0.3,0.4-0.6,0.7-1,0.9c-0.4,0.2-0.9,0.4-1.4,0.5c-0.5,0.1-1,0.1-1.5,0.1v1.5h4.1v11.2h1.9
		v-15.7H839C838.9,263.2,838.7,263.6,838.4,264z"/>
	<path fill="#FFFFFF" d="M857.3,267c-0.1-0.6-0.3-1.2-0.5-1.7c-0.2-0.5-0.5-1-0.9-1.4s-0.9-0.7-1.4-1c-0.6-0.2-1.3-0.4-2.1-0.4
		c-0.8,0-1.5,0.1-2.1,0.4c-0.6,0.2-1.1,0.6-1.4,1c-0.4,0.4-0.7,0.9-0.9,1.4c-0.2,0.5-0.4,1.1-0.5,1.7c-0.1,0.6-0.2,1.2-0.2,1.8
		c0,0.6,0,1.2,0,1.8s0,1.2,0,1.8c0,0.6,0.1,1.2,0.2,1.8c0.1,0.6,0.3,1.1,0.5,1.7c0.2,0.5,0.5,1,0.9,1.4c0.4,0.4,0.9,0.7,1.4,0.9
		c0.6,0.2,1.3,0.3,2.1,0.3c0.8,0,1.5-0.1,2.1-0.3s1.1-0.5,1.4-0.9s0.7-0.9,0.9-1.4c0.2-0.5,0.4-1.1,0.5-1.7s0.2-1.2,0.2-1.8
		c0-0.6,0-1.2,0-1.8s0-1.2,0-1.8C857.5,268.1,857.4,267.5,857.3,267z M855.5,272.5c0,0.7-0.2,1.4-0.4,2.1s-0.5,1.2-1,1.6
		c-0.4,0.4-1.1,0.7-1.9,0.7s-1.4-0.2-1.9-0.7c-0.4-0.4-0.8-1-1-1.6s-0.3-1.3-0.4-2.1c0-0.7-0.1-1.4-0.1-2c0-0.4,0-0.8,0-1.3
		c0-0.5,0-0.9,0.1-1.4c0.1-0.5,0.2-0.9,0.3-1.4c0.1-0.4,0.3-0.8,0.6-1.2c0.2-0.3,0.5-0.6,0.9-0.8c0.4-0.2,0.8-0.3,1.3-0.3
		s1,0.1,1.3,0.3c0.4,0.2,0.7,0.5,0.9,0.8c0.2,0.3,0.4,0.7,0.6,1.2c0.1,0.4,0.2,0.9,0.3,1.4c0.1,0.5,0.1,0.9,0.1,1.4
		c0,0.5,0,0.9,0,1.3C855.5,271.1,855.5,271.8,855.5,272.5z"/>
	<path fill="#FFFFFF" d="M1028,99.2H903c-8.7,0-15.7,7.1-15.7,15.7v72.4c0,8.7,7.1,15.7,15.7,15.7h125c8.7,0,15.7-7.1,15.7-15.7V115
		C1043.7,106.3,1036.7,99.2,1028,99.2z M1036.7,187.4c0,4.8-3.9,8.7-8.7,8.7H903c-4.8,0-8.7-3.9-8.7-8.7V115c0-4.8,3.9-8.7,8.7-8.7
		h125c4.8,0,8.7,3.9,8.7,8.7V187.4z"/>
	<path fill="#FFFFFF" d="M942.6,142.8c3.1-3.2,4.9-7.6,4.9-12.3c0-9.8-8-17.7-17.7-17.7c-9.8,0-17.7,8-17.7,17.7
		c0,4.6,1.8,9,4.9,12.3c-10.8,6.7-17.9,21.4-17.9,38.2c0,1.8,0.1,3.6,0.3,5.4c0.2,1.8,1.7,3.2,3.5,3.2h53.8c1.8,0,3.3-1.4,3.5-3.2
		c0.2-1.8,0.3-3.7,0.3-5.4C960.4,164.2,953.3,149.4,942.6,142.8z M953.4,182.6h-47.2c0-0.5,0-1.1,0-1.6c0-16.4,7.9-30.8,18.7-34.3
		c1.4-0.4,2.3-1.7,2.4-3.1c0.1-1.4-0.7-2.8-2-3.4c-3.8-1.8-6.2-5.6-6.2-9.7c0-5.9,4.8-10.7,10.7-10.7c5.9,0,10.7,4.8,10.7,10.7
		c0,4.2-2.4,8-6.2,9.7c-1.3,0.6-2.1,2-2,3.4c0.1,1.4,1.1,2.7,2.4,3.1c10.9,3.5,18.7,17.9,18.7,34.3
		C953.4,181.5,953.4,182.1,953.4,182.6z"/>
	<path fill="#FFFFFF" d="M970.4,157.6h2c1.9,0,3.5-1.6,3.5-3.5s-1.6-3.5-3.5-3.5h-2c-1.9,0-3.5,1.6-3.5,3.5S968.5,157.6,970.4,157.6
		z"/>
	<path fill="#FFFFFF" d="M1029,150.6h-36.6c-1.9,0-3.5,1.6-3.5,3.5s1.6,3.5,3.5,3.5h36.6c1.9,0,3.5-1.6,3.5-3.5
		S1031,150.6,1029,150.6z"/>
	<path fill="#FFFFFF" d="M972.7,164.2h-2c-1.9,0-3.5,1.6-3.5,3.5s1.6,3.5,3.5,3.5h2c1.9,0,3.5-1.6,3.5-3.5S974.6,164.2,972.7,164.2z
		"/>
	<path fill="#FFFFFF" d="M1028.9,164.2h-36.2c-1.9,0-3.5,1.6-3.5,3.5s1.6,3.5,3.5,3.5h36.2c1.9,0,3.5-1.6,3.5-3.5
		S1030.8,164.2,1028.9,164.2z"/>
	<path fill="#FFFFFF" d="M1028.9,177.8h-36.2c-1.9,0-3.5,1.6-3.5,3.5s1.6,3.5,3.5,3.5h36.2c1.9,0,3.5-1.6,3.5-3.5
		S1030.8,177.8,1028.9,177.8z"/>
	<path fill="#FFFFFF" d="M972.7,177.8h-2c-1.9,0-3.5,1.6-3.5,3.5s1.6,3.5,3.5,3.5h2c1.9,0,3.5-1.6,3.5-3.5S974.6,177.8,972.7,177.8z
		"/>
	<path fill="#FFFFFF" d="M970.4,143.9h2c1.9,0,3.5-1.6,3.5-3.5s-1.6-3.5-3.5-3.5h-2c-1.9,0-3.5,1.6-3.5,3.5S968.5,143.9,970.4,143.9
		z"/>
	<path fill="#FFFFFF" d="M1029,136.9h-36.6c-1.9,0-3.5,1.6-3.5,3.5s1.6,3.5,3.5,3.5h36.6c1.9,0,3.5-1.6,3.5-3.5
		S1031,136.9,1029,136.9z"/>
	<path fill="#FFFFFF" d="M1030.4,123.3h-37.7c-1.9,0-3.5,1.6-3.5,3.5s1.6,3.5,3.5,3.5h37.7c1.9,0,3.5-1.6,3.5-3.5
		S1032.4,123.3,1030.4,123.3z"/>
	<path fill="#FFFFFF" d="M972.7,123.3h-2c-1.9,0-3.5,1.6-3.5,3.5s1.6,3.5,3.5,3.5h2c1.9,0,3.5-1.6,3.5-3.5S974.6,123.3,972.7,123.3z
		"/>
	<path fill="#FFFFFF" d="M1028,218.2H903c-8.7,0-15.7,7.1-15.7,15.7v72.4c0,8.7,7.1,15.7,15.7,15.7h125c8.7,0,15.7-7.1,15.7-15.7
		v-72.4C1043.7,225.3,1036.7,218.2,1028,218.2z M1036.7,306.4c0,4.8-3.9,8.7-8.7,8.7H903c-4.8,0-8.7-3.9-8.7-8.7v-72.4
		c0-4.8,3.9-8.7,8.7-8.7h125c4.8,0,8.7,3.9,8.7,8.7V306.4z"/>
	<path fill="#FFFFFF" d="M942.6,261.7c3.1-3.2,4.9-7.6,4.9-12.3c0-9.8-8-17.7-17.7-17.7c-9.8,0-17.7,8-17.7,17.7
		c0,4.6,1.8,9,4.9,12.3c-10.8,6.7-17.9,21.4-17.9,38.2c0,1.8,0.1,3.6,0.3,5.4c0.2,1.8,1.7,3.2,3.5,3.2h53.8c1.8,0,3.3-1.4,3.5-3.2
		c0.2-1.8,0.3-3.7,0.3-5.4C960.4,283.2,953.3,268.4,942.6,261.7z M953.4,301.6h-47.2c0-0.5,0-1.1,0-1.6c0-16.4,7.9-30.8,18.7-34.3
		c1.4-0.4,2.3-1.7,2.4-3.1c0.1-1.4-0.7-2.8-2-3.4c-3.8-1.8-6.2-5.6-6.2-9.7c0-5.9,4.8-10.7,10.7-10.7c5.9,0,10.7,4.8,10.7,10.7
		c0,4.2-2.4,8-6.2,9.7c-1.3,0.6-2.1,2-2,3.4c0.1,1.4,1.1,2.7,2.4,3.1c10.9,3.5,18.7,17.9,18.7,34.3
		C953.4,300.5,953.4,301,953.4,301.6z"/>
	<path fill="#FFFFFF" d="M1029,269.5h-36.6c-1.9,0-3.5,1.6-3.5,3.5s1.6,3.5,3.5,3.5h36.6c1.9,0,3.5-1.6,3.5-3.5
		S1031,269.5,1029,269.5z"/>
	<path fill="#FFFFFF" d="M970.4,276.5h2c1.9,0,3.5-1.6,3.5-3.5s-1.6-3.5-3.5-3.5h-2c-1.9,0-3.5,1.6-3.5,3.5S968.5,276.5,970.4,276.5
		z"/>
	<path fill="#FFFFFF" d="M972.7,283.2h-2c-1.9,0-3.5,1.6-3.5,3.5s1.6,3.5,3.5,3.5h2c1.9,0,3.5-1.6,3.5-3.5S974.6,283.2,972.7,283.2z
		"/>
	<path fill="#FFFFFF" d="M1028.9,283.2h-36.2c-1.9,0-3.5,1.6-3.5,3.5s1.6,3.5,3.5,3.5h36.2c1.9,0,3.5-1.6,3.5-3.5
		S1030.8,283.2,1028.9,283.2z"/>
	<path fill="#FFFFFF" d="M972.7,296.8h-2c-1.9,0-3.5,1.6-3.5,3.5s1.6,3.5,3.5,3.5h2c1.9,0,3.5-1.6,3.5-3.5S974.6,296.8,972.7,296.8z
		"/>
	<path fill="#FFFFFF" d="M1028.9,296.8h-36.2c-1.9,0-3.5,1.6-3.5,3.5s1.6,3.5,3.5,3.5h36.2c1.9,0,3.5-1.6,3.5-3.5
		S1030.8,296.8,1028.9,296.8z"/>
	<path fill="#FFFFFF" d="M1029,255.9h-36.6c-1.9,0-3.5,1.6-3.5,3.5s1.6,3.5,3.5,3.5h36.6c1.9,0,3.5-1.6,3.5-3.5
		S1031,255.9,1029,255.9z"/>
	<path fill="#FFFFFF" d="M970.4,262.9h2c1.9,0,3.5-1.6,3.5-3.5s-1.6-3.5-3.5-3.5h-2c-1.9,0-3.5,1.6-3.5,3.5S968.5,262.9,970.4,262.9
		z"/>
	<path fill="#FFFFFF" d="M1030.4,242.3h-37.7c-1.9,0-3.5,1.6-3.5,3.5s1.6,3.5,3.5,3.5h37.7c1.9,0,3.5-1.6,3.5-3.5
		S1032.4,242.3,1030.4,242.3z"/>
	<path fill="#FFFFFF" d="M972.7,242.3h-2c-1.9,0-3.5,1.6-3.5,3.5s1.6,3.5,3.5,3.5h2c1.9,0,3.5-1.6,3.5-3.5S974.6,242.3,972.7,242.3z
		"/>
	<path fill="#FFFFFF" d="M1028,337.2H903c-8.7,0-15.7,7.1-15.7,15.7v72.4c0,8.7,7.1,15.7,15.7,15.7h125c8.7,0,15.7-7.1,15.7-15.7
		v-72.4C1043.7,344.2,1036.7,337.2,1028,337.2z M1036.7,425.4c0,4.8-3.9,8.7-8.7,8.7H903c-4.8,0-8.7-3.9-8.7-8.7v-72.4
		c0-4.8,3.9-8.7,8.7-8.7h125c4.8,0,8.7,3.9,8.7,8.7V425.4z"/>
	<path fill="#FFFFFF" d="M942.6,380.7c3.1-3.2,4.9-7.6,4.9-12.3c0-9.8-8-17.7-17.7-17.7c-9.8,0-17.7,8-17.7,17.7
		c0,4.6,1.8,9,4.9,12.3c-10.8,6.7-17.9,21.4-17.9,38.2c0,1.8,0.1,3.6,0.3,5.4c0.2,1.8,1.7,3.2,3.5,3.2h53.8c1.8,0,3.3-1.4,3.5-3.2
		c0.2-1.8,0.3-3.7,0.3-5.4C960.4,402.2,953.3,387.4,942.6,380.7z M953.4,420.6h-47.2c0-0.5,0-1.1,0-1.6c0-16.4,7.9-30.8,18.7-34.3
		c1.4-0.4,2.3-1.7,2.4-3.1c0.1-1.4-0.7-2.8-2-3.4c-3.8-1.8-6.2-5.6-6.2-9.7c0-5.9,4.8-10.7,10.7-10.7c5.9,0,10.7,4.8,10.7,10.7
		c0,4.2-2.4,8-6.2,9.7c-1.3,0.6-2.1,2-2,3.4c0.1,1.4,1.1,2.7,2.4,3.1c10.9,3.5,18.7,17.9,18.7,34.3
		C953.4,419.5,953.4,420,953.4,420.6z"/>
	<path fill="#FFFFFF" d="M1029,388.5h-36.6c-1.9,0-3.5,1.6-3.5,3.5s1.6,3.5,3.5,3.5h36.6c1.9,0,3.5-1.6,3.5-3.5
		S1031,388.5,1029,388.5z"/>
	<path fill="#FFFFFF" d="M970.4,395.5h2c1.9,0,3.5-1.6,3.5-3.5s-1.6-3.5-3.5-3.5h-2c-1.9,0-3.5,1.6-3.5,3.5S968.5,395.5,970.4,395.5
		z"/>
	<path fill="#FFFFFF" d="M1028.9,402.2h-36.2c-1.9,0-3.5,1.6-3.5,3.5s1.6,3.5,3.5,3.5h36.2c1.9,0,3.5-1.6,3.5-3.5
		S1030.8,402.2,1028.9,402.2z"/>
	<path fill="#FFFFFF" d="M972.7,402.2h-2c-1.9,0-3.5,1.6-3.5,3.5s1.6,3.5,3.5,3.5h2c1.9,0,3.5-1.6,3.5-3.5S974.6,402.2,972.7,402.2z
		"/>
	<path fill="#FFFFFF" d="M1028.9,415.8h-36.2c-1.9,0-3.5,1.6-3.5,3.5s1.6,3.5,3.5,3.5h36.2c1.9,0,3.5-1.6,3.5-3.5
		S1030.8,415.8,1028.9,415.8z"/>
	<path fill="#FFFFFF" d="M972.7,415.8h-2c-1.9,0-3.5,1.6-3.5,3.5s1.6,3.5,3.5,3.5h2c1.9,0,3.5-1.6,3.5-3.5S974.6,415.8,972.7,415.8z
		"/>
	<path fill="#FFFFFF" d="M1029,374.9h-36.6c-1.9,0-3.5,1.6-3.5,3.5s1.6,3.5,3.5,3.5h36.6c1.9,0,3.5-1.6,3.5-3.5
		S1031,374.9,1029,374.9z"/>
	<path fill="#FFFFFF" d="M970.4,381.9h2c1.9,0,3.5-1.6,3.5-3.5s-1.6-3.5-3.5-3.5h-2c-1.9,0-3.5,1.6-3.5,3.5S968.5,381.9,970.4,381.9
		z"/>
	<path fill="#FFFFFF" d="M972.7,361.3h-2c-1.9,0-3.5,1.6-3.5,3.5s1.6,3.5,3.5,3.5h2c1.9,0,3.5-1.6,3.5-3.5S974.6,361.3,972.7,361.3z
		"/>
	<path fill="#FFFFFF" d="M1030.4,361.3h-37.7c-1.9,0-3.5,1.6-3.5,3.5s1.6,3.5,3.5,3.5h37.7c1.9,0,3.5-1.6,3.5-3.5
		S1032.4,361.3,1030.4,361.3z"/>
	<path fill="#FFFFFF" d="M844.5,157.9c0.1,0.6,0.3,1.2,0.5,1.7c0.2,0.5,0.5,1,0.9,1.4s0.9,0.7,1.4,1c0.6,0.2,1.3,0.4,2.1,0.4
		c0.8,0,1.5-0.1,2.1-0.4c0.6-0.2,1.1-0.6,1.4-1c0.4-0.4,0.7-0.9,0.9-1.4c0.2-0.5,0.4-1.1,0.5-1.7c0.1-0.6,0.2-1.2,0.2-1.8
		c0-0.6,0-1.2,0-1.8s0-1.2,0-1.8c0-0.6-0.1-1.2-0.2-1.8c-0.1-0.6-0.3-1.1-0.5-1.7c-0.2-0.5-0.5-1-0.9-1.4c-0.4-0.4-0.9-0.7-1.4-0.9
		c-0.6-0.2-1.3-0.3-2.1-0.3c-0.8,0-1.5,0.1-2.1,0.3s-1.1,0.5-1.4,0.9c-0.4,0.4-0.7,0.9-0.9,1.4c-0.2,0.5-0.4,1.1-0.5,1.7
		s-0.2,1.2-0.2,1.8c0,0.6,0,1.2,0,1.8s0,1.2,0,1.8C844.3,156.7,844.4,157.3,844.5,157.9z M846.3,152.3c0-0.7,0.2-1.4,0.4-2.1
		s0.5-1.2,1-1.6c0.4-0.4,1.1-0.7,1.9-0.7s1.4,0.2,1.9,0.7c0.4,0.4,0.8,1,1,1.6s0.3,1.3,0.4,2.1c0,0.7,0.1,1.4,0.1,2
		c0,0.4,0,0.8,0,1.3c0,0.5,0,0.9-0.1,1.4c-0.1,0.5-0.2,0.9-0.3,1.4c-0.1,0.4-0.3,0.8-0.6,1.2c-0.2,0.3-0.5,0.6-0.9,0.8
		c-0.4,0.2-0.8,0.3-1.3,0.3s-1-0.1-1.3-0.3c-0.4-0.2-0.7-0.5-0.9-0.8c-0.2-0.3-0.4-0.7-0.6-1.2c-0.1-0.4-0.2-0.9-0.3-1.4
		c-0.1-0.5-0.1-0.9-0.1-1.4c0-0.5,0-0.9,0-1.3C846.2,153.7,846.3,153.1,846.3,152.3z"/>
	<path fill="#FFFFFF" d="M840.8,150.7c-0.1-0.6-0.3-1.1-0.5-1.7c-0.2-0.5-0.5-1-0.9-1.4c-0.4-0.4-0.9-0.7-1.4-0.9
		c-0.6-0.2-1.3-0.3-2.1-0.3c-0.8,0-1.5,0.1-2.1,0.3s-1.1,0.5-1.4,0.9c-0.4,0.4-0.7,0.9-0.9,1.4c-0.2,0.5-0.4,1.1-0.5,1.7
		s-0.2,1.2-0.2,1.8c0,0.6,0,1.2,0,1.8s0,1.2,0,1.8c0,0.6,0.1,1.2,0.2,1.8s0.3,1.2,0.5,1.7c0.2,0.5,0.5,1,0.9,1.4s0.9,0.7,1.4,1
		c0.6,0.2,1.3,0.4,2.1,0.4c0.8,0,1.5-0.1,2.1-0.4c0.6-0.2,1.1-0.6,1.4-1c0.4-0.4,0.7-0.9,0.9-1.4c0.2-0.5,0.4-1.1,0.5-1.7
		c0.1-0.6,0.2-1.2,0.2-1.8c0-0.6,0-1.2,0-1.8s0-1.2,0-1.8C841,151.9,840.9,151.3,840.8,150.7z M839.1,155.6c0,0.5,0,0.9-0.1,1.4
		c-0.1,0.5-0.2,0.9-0.3,1.4c-0.1,0.4-0.3,0.8-0.6,1.2c-0.2,0.3-0.5,0.6-0.9,0.8c-0.4,0.2-0.8,0.3-1.3,0.3s-1-0.1-1.3-0.3
		c-0.4-0.2-0.7-0.5-0.9-0.8c-0.2-0.3-0.4-0.7-0.6-1.2c-0.1-0.4-0.2-0.9-0.3-1.4c-0.1-0.5-0.1-0.9-0.1-1.4c0-0.5,0-0.9,0-1.3
		c0-0.6,0-1.2,0.1-2c0-0.7,0.2-1.4,0.4-2.1s0.5-1.2,1-1.6c0.4-0.4,1.1-0.7,1.9-0.7s1.4,0.2,1.9,0.7c0.4,0.4,0.8,1,1,1.6
		s0.3,1.3,0.4,2.1c0,0.7,0.1,1.4,0.1,2C839.1,154.7,839.1,155.1,839.1,155.6z"/>
	<path fill="#FFFFFF" d="M822.5,160.8c0.3-0.4,0.6-0.7,1-0.9c0.4-0.2,0.9-0.4,1.4-0.5c0.5-0.1,1-0.1,1.5-0.1v-1.5h-4.1v-11.2h-1.9
		v15.7h1.4C822,161.7,822.2,161.2,822.5,160.8z"/>
	<path fill="#FFFFFF" d="M813.5,150.7c-0.1-0.6-0.3-1.1-0.5-1.7c-0.2-0.5-0.5-1-0.9-1.4c-0.4-0.4-0.9-0.7-1.4-0.9
		c-0.6-0.2-1.3-0.3-2.1-0.3c-0.8,0-1.5,0.1-2.1,0.3s-1.1,0.5-1.4,0.9c-0.4,0.4-0.7,0.9-0.9,1.4c-0.2,0.5-0.4,1.1-0.5,1.7
		s-0.2,1.2-0.2,1.8c0,0.6,0,1.2,0,1.8s0,1.2,0,1.8c0,0.6,0.1,1.2,0.2,1.8s0.3,1.2,0.5,1.7c0.2,0.5,0.5,1,0.9,1.4s0.9,0.7,1.4,1
		c0.6,0.2,1.3,0.4,2.1,0.4c0.8,0,1.5-0.1,2.1-0.4c0.6-0.2,1.1-0.6,1.4-1c0.4-0.4,0.7-0.9,0.9-1.4c0.2-0.5,0.4-1.1,0.5-1.7
		c0.1-0.6,0.2-1.2,0.2-1.8c0-0.6,0-1.2,0-1.8s0-1.2,0-1.8C813.7,151.9,813.6,151.3,813.5,150.7z M811.8,155.6c0,0.5,0,0.9-0.1,1.4
		c-0.1,0.5-0.2,0.9-0.3,1.4c-0.1,0.4-0.3,0.8-0.6,1.2c-0.2,0.3-0.5,0.6-0.9,0.8c-0.4,0.2-0.8,0.3-1.3,0.3s-1-0.1-1.3-0.3
		c-0.4-0.2-0.7-0.5-0.9-0.8c-0.2-0.3-0.4-0.7-0.6-1.2c-0.1-0.4-0.2-0.9-0.3-1.4c-0.1-0.5-0.1-0.9-0.1-1.4c0-0.5,0-0.9,0-1.3
		c0-0.6,0-1.2,0.1-2c0-0.7,0.2-1.4,0.4-2.1s0.5-1.2,1-1.6c0.4-0.4,1.1-0.7,1.9-0.7s1.4,0.2,1.9,0.7c0.4,0.4,0.8,1,1,1.6
		s0.3,1.3,0.4,2.1c0,0.7,0.1,1.4,0.1,2C811.8,154.7,811.8,155.1,811.8,155.6z"/>
	<path fill="#FFFFFF" d="M795.2,160.8c0.3-0.4,0.6-0.7,1-0.9c0.4-0.2,0.9-0.4,1.4-0.5c0.5-0.1,1-0.1,1.5-0.1v-1.5h-4.1v-11.2h-1.9
		v15.7h1.4C794.8,161.7,794.9,161.2,795.2,160.8z"/>
	<path fill="#FFFFFF" d="M786.2,150.7c-0.1-0.6-0.3-1.1-0.5-1.7c-0.2-0.5-0.5-1-0.9-1.4c-0.4-0.4-0.9-0.7-1.4-0.9
		c-0.6-0.2-1.3-0.3-2.1-0.3c-0.8,0-1.5,0.1-2.1,0.3s-1.1,0.5-1.4,0.9c-0.4,0.4-0.7,0.9-0.9,1.4c-0.2,0.5-0.4,1.1-0.5,1.7
		s-0.2,1.2-0.2,1.8c0,0.6,0,1.2,0,1.8s0,1.2,0,1.8c0,0.6,0.1,1.2,0.2,1.8s0.3,1.2,0.5,1.7c0.2,0.5,0.5,1,0.9,1.4s0.9,0.7,1.4,1
		c0.6,0.2,1.3,0.4,2.1,0.4c0.8,0,1.5-0.1,2.1-0.4c0.6-0.2,1.1-0.6,1.4-1c0.4-0.4,0.7-0.9,0.9-1.4c0.2-0.5,0.4-1.1,0.5-1.7
		c0.1-0.6,0.2-1.2,0.2-1.8c0-0.6,0-1.2,0-1.8s0-1.2,0-1.8C786.4,151.9,786.4,151.3,786.2,150.7z M784.5,155.6c0,0.5,0,0.9-0.1,1.4
		c-0.1,0.5-0.2,0.9-0.3,1.4c-0.1,0.4-0.3,0.8-0.6,1.2c-0.2,0.3-0.5,0.6-0.9,0.8c-0.4,0.2-0.8,0.3-1.3,0.3s-1-0.1-1.3-0.3
		c-0.4-0.2-0.7-0.5-0.9-0.8c-0.2-0.3-0.4-0.7-0.6-1.2c-0.1-0.4-0.2-0.9-0.3-1.4c-0.1-0.5-0.1-0.9-0.1-1.4c0-0.5,0-0.9,0-1.3
		c0-0.6,0-1.2,0.1-2c0-0.7,0.2-1.4,0.4-2.1s0.5-1.2,1-1.6c0.4-0.4,1.1-0.7,1.9-0.7s1.4,0.2,1.9,0.7c0.4,0.4,0.8,1,1,1.6
		s0.3,1.3,0.4,2.1c0,0.7,0.1,1.4,0.1,2C784.5,154.7,784.5,155.1,784.5,155.6z"/>
	<path fill="#FFFFFF" d="M770.7,164.3c-0.2-0.6-0.3-1.1-0.2-1.6c0.1-0.5,0.2-0.9,0.5-1.3s0.6-0.7,1-1.1c0.4-0.3,0.8-0.6,1.3-0.9
		l-0.7-1.3l-3.6,2l-5.4-9.9l-1.6,0.9l7.5,13.8L770.7,164.3z"/>
	<path fill="#FFFFFF" d="M753.2,173.5c0.4,0.4,0.9,0.7,1.4,0.9s1.1,0.4,1.7,0.5c0.6,0.1,1.2,0.2,1.8,0.2c0.6,0,1.2,0,1.8,0
		s1.2,0,1.8,0c0.6,0,1.2-0.1,1.8-0.2s1.2-0.3,1.7-0.5s1-0.5,1.4-0.9c0.4-0.4,0.7-0.9,1-1.4c0.2-0.6,0.4-1.3,0.4-2.1
		c0-0.8-0.1-1.5-0.4-2.1c-0.2-0.6-0.6-1.1-1-1.4c-0.4-0.4-0.9-0.7-1.4-0.9s-1.1-0.4-1.7-0.5c-0.6-0.1-1.2-0.2-1.8-0.2
		c-0.6,0-1.2,0-1.8,0s-1.2,0-1.8,0c-0.6,0-1.2,0.1-1.8,0.2c-0.6,0.1-1.1,0.3-1.7,0.5s-1,0.5-1.4,0.9c-0.4,0.4-0.7,0.9-0.9,1.4
		s-0.3,1.3-0.3,2.1c0,0.8,0.1,1.5,0.3,2.1C752.5,172.6,752.8,173.1,753.2,173.5z M754.2,168.1c0.4-0.4,1-0.8,1.6-1
		c0.6-0.2,1.3-0.3,2.1-0.4c0.7,0,1.4-0.1,2-0.1c0.4,0,0.8,0,1.3,0c0.5,0,0.9,0,1.4,0.1s0.9,0.2,1.4,0.3c0.4,0.1,0.8,0.3,1.2,0.6
		c0.3,0.2,0.6,0.5,0.8,0.9c0.2,0.4,0.3,0.8,0.3,1.4c0,0.5-0.1,1-0.3,1.3c-0.2,0.4-0.5,0.7-0.8,0.9c-0.3,0.2-0.7,0.4-1.2,0.6
		s-0.9,0.2-1.4,0.3c-0.5,0.1-0.9,0.1-1.4,0.1c-0.5,0-0.9,0-1.3,0c-0.6,0-1.3,0-2-0.1c-0.7,0-1.4-0.2-2.1-0.4c-0.6-0.2-1.2-0.5-1.6-1
		s-0.7-1.1-0.7-1.9C753.5,169.1,753.7,168.5,754.2,168.1z"/>
	<path fill="#FFFFFF" d="M765.5,182.3c-0.2-0.4-0.4-0.9-0.5-1.4c-0.1-0.5-0.1-1-0.1-1.5h-1.5v4.1h-11.2v1.9h15.7v-1.4
		c-0.6-0.1-1.1-0.3-1.5-0.6C766,183,765.7,182.7,765.5,182.3z"/>
	<path fill="#FFFFFF" d="M753.2,200.7c0.4,0.4,0.9,0.7,1.4,0.9s1.1,0.4,1.7,0.5c0.6,0.1,1.2,0.2,1.8,0.2c0.6,0,1.2,0,1.8,0
		s1.2,0,1.8,0c0.6,0,1.2-0.1,1.8-0.2s1.2-0.3,1.7-0.5s1-0.5,1.4-0.9c0.4-0.4,0.7-0.9,1-1.4c0.2-0.6,0.4-1.3,0.4-2.1
		c0-0.8-0.1-1.5-0.4-2.1c-0.2-0.6-0.6-1.1-1-1.4c-0.4-0.4-0.9-0.7-1.4-0.9s-1.1-0.4-1.7-0.5c-0.6-0.1-1.2-0.2-1.8-0.2
		c-0.6,0-1.2,0-1.8,0s-1.2,0-1.8,0c-0.6,0-1.2,0.1-1.8,0.2c-0.6,0.1-1.1,0.3-1.7,0.5s-1,0.5-1.4,0.9c-0.4,0.4-0.7,0.9-0.9,1.4
		s-0.3,1.3-0.3,2.1c0,0.8,0.1,1.5,0.3,2.1C752.5,199.9,752.8,200.4,753.2,200.7z M754.2,195.3c0.4-0.4,1-0.8,1.6-1
		c0.6-0.2,1.3-0.3,2.1-0.4c0.7,0,1.4-0.1,2-0.1c0.4,0,0.8,0,1.3,0c0.5,0,0.9,0,1.4,0.1s0.9,0.2,1.4,0.3c0.4,0.1,0.8,0.3,1.2,0.6
		c0.3,0.2,0.6,0.5,0.8,0.9c0.2,0.4,0.3,0.8,0.3,1.4c0,0.5-0.1,1-0.3,1.3c-0.2,0.4-0.5,0.7-0.8,0.9c-0.3,0.2-0.7,0.4-1.2,0.6
		s-0.9,0.2-1.4,0.3c-0.5,0.1-0.9,0.1-1.4,0.1c-0.5,0-0.9,0-1.3,0c-0.6,0-1.3,0-2-0.1c-0.7,0-1.4-0.2-2.1-0.4c-0.6-0.2-1.2-0.5-1.6-1
		s-0.7-1.1-0.7-1.9C753.5,196.4,753.7,195.8,754.2,195.3z"/>
	<path fill="#FFFFFF" d="M765.5,209.6c-0.2-0.4-0.4-0.9-0.4-1.4c-0.1-0.5-0.1-1-0.1-1.6l-1.5,0l0,4.1l-11.2-0.1l0,1.9l15.7,0.1
		l0-1.4c-0.6-0.1-1.1-0.3-1.5-0.6C766,210.4,765.7,210,765.5,209.6z"/>
	<path fill="#FFFFFF" d="M750.5,227.6c0.4,0.4,0.8,0.8,1.3,1.2s1,0.7,1.5,1c0.5,0.3,1.1,0.6,1.6,0.8c0.5,0.2,1.1,0.5,1.6,0.7
		c0.6,0.2,1.2,0.4,1.7,0.6c0.6,0.1,1.2,0.2,1.7,0.3c0.6,0,1.1,0,1.6-0.2c0.5-0.2,1-0.5,1.5-0.9c0.5-0.4,0.9-1,1.2-1.7
		c0.3-0.7,0.5-1.4,0.6-2c0-0.6,0-1.2-0.2-1.7c-0.2-0.5-0.5-1-0.9-1.4c-0.4-0.4-0.8-0.8-1.3-1.2s-1-0.7-1.5-1
		c-0.5-0.3-1.1-0.6-1.6-0.8c-0.5-0.2-1.1-0.5-1.6-0.7c-0.6-0.2-1.2-0.4-1.7-0.6c-0.6-0.1-1.2-0.2-1.7-0.3c-0.6,0-1.1,0.1-1.6,0.2
		c-0.5,0.2-1,0.5-1.5,0.9c-0.5,0.4-0.9,1-1.2,1.7c-0.4,0.7-0.5,1.4-0.6,2c0,0.6,0,1.2,0.2,1.7C749.9,226.7,750.1,227.2,750.5,227.6z
		 M751.5,223.1c0.3-0.7,0.8-1.2,1.4-1.4s1.2-0.3,1.9-0.2c0.7,0.1,1.3,0.3,2,0.6s1.3,0.5,1.8,0.8c0.3,0.2,0.7,0.3,1.1,0.6
		c0.4,0.2,0.8,0.4,1.2,0.7c0.4,0.3,0.8,0.5,1.1,0.8s0.6,0.6,0.8,1c0.2,0.4,0.3,0.8,0.3,1.2c0,0.4-0.1,0.9-0.3,1.4
		c-0.2,0.5-0.5,0.8-0.9,1.1c-0.3,0.2-0.7,0.4-1.1,0.5c-0.4,0.1-0.8,0.1-1.3,0c-0.5-0.1-0.9-0.2-1.4-0.3s-0.9-0.3-1.3-0.5
		c-0.4-0.2-0.8-0.4-1.2-0.5c-0.5-0.3-1.1-0.5-1.8-0.9s-1.2-0.7-1.7-1.2c-0.5-0.5-0.8-1-1.1-1.6C751.1,224.5,751.1,223.8,751.5,223.1
		z"/>
	<path fill="#FFFFFF" d="M749.2,244.5c-0.2-0.6-0.2-1.1-0.1-1.6c0.1-0.5,0.3-0.9,0.5-1.3c0.3-0.4,0.6-0.7,1-1
		c0.4-0.3,0.9-0.5,1.3-0.8l-0.6-1.4l-3.7,1.8l-4.9-10.1l-1.7,0.8l6.8,14.1L749.2,244.5z"/>
	<path fill="#FFFFFF" d="M736,236.2c-0.1-0.6-0.3-1.1-0.5-1.7c-0.2-0.5-0.5-1-0.9-1.4c-0.4-0.4-0.9-0.7-1.4-0.9
		c-0.6-0.2-1.3-0.3-2.1-0.3c-0.8,0-1.5,0.1-2.1,0.3s-1.1,0.5-1.4,0.9c-0.4,0.4-0.7,0.9-0.9,1.4c-0.2,0.5-0.4,1.1-0.5,1.7
		s-0.2,1.2-0.2,1.8c0,0.6,0,1.2,0,1.8s0,1.2,0,1.8c0,0.6,0.1,1.2,0.2,1.8s0.3,1.2,0.5,1.7c0.2,0.5,0.5,1,0.9,1.4s0.9,0.7,1.4,1
		c0.6,0.2,1.3,0.4,2.1,0.4c0.8,0,1.5-0.1,2.1-0.4c0.6-0.2,1.1-0.6,1.4-1c0.4-0.4,0.7-0.9,0.9-1.4c0.2-0.5,0.4-1.1,0.5-1.7
		c0.1-0.6,0.2-1.2,0.2-1.8c0-0.6,0-1.2,0-1.8s0-1.2,0-1.8C736.2,237.4,736.1,236.8,736,236.2z M734.3,241.1c0,0.5,0,0.9-0.1,1.4
		c-0.1,0.5-0.2,0.9-0.3,1.4c-0.1,0.4-0.3,0.8-0.6,1.2c-0.2,0.3-0.5,0.6-0.9,0.8c-0.4,0.2-0.8,0.3-1.3,0.3s-1-0.1-1.3-0.3
		c-0.4-0.2-0.7-0.5-0.9-0.8c-0.2-0.3-0.4-0.7-0.6-1.2c-0.1-0.4-0.2-0.9-0.3-1.4c-0.1-0.5-0.1-0.9-0.1-1.4c0-0.5,0-0.9,0-1.3
		c0-0.6,0-1.2,0.1-2c0-0.7,0.2-1.4,0.4-2.1s0.5-1.2,1-1.6c0.4-0.4,1.1-0.7,1.9-0.7s1.4,0.2,1.9,0.7c0.4,0.4,0.8,1,1,1.6
		s0.3,1.3,0.4,2.1c0,0.7,0.1,1.4,0.1,2C734.3,240.2,734.3,240.7,734.3,241.1z"/>
	<path fill="#FFFFFF" d="M717.6,232.1h-1.9v15.7h1.4c0.1-0.6,0.3-1.1,0.6-1.5c0.3-0.4,0.6-0.7,1-0.9s0.9-0.4,1.4-0.5
		c0.5-0.1,1-0.1,1.5-0.1v-1.5h-4.1V232.1z"/>
	<path fill="#FFFFFF" d="M703.9,232.1h-1.9v15.7h1.4c0.1-0.6,0.3-1.1,0.6-1.5c0.3-0.4,0.6-0.7,1-0.9s0.9-0.4,1.4-0.5
		c0.5-0.1,1-0.1,1.5-0.1v-1.5h-4.1V232.1z"/>
	<path fill="#FFFFFF" d="M695.1,236.2c-0.1-0.6-0.3-1.1-0.5-1.7c-0.2-0.5-0.5-1-0.9-1.4c-0.4-0.4-0.9-0.7-1.4-0.9s-1.3-0.3-2.1-0.3
		c-0.8,0-1.5,0.1-2.1,0.3c-0.6,0.2-1.1,0.5-1.4,0.9c-0.4,0.4-0.7,0.9-0.9,1.4c-0.2,0.5-0.4,1.1-0.5,1.7s-0.2,1.2-0.2,1.8
		c0,0.6,0,1.2,0,1.8s0,1.2,0,1.8c0,0.6,0.1,1.2,0.2,1.8s0.3,1.2,0.5,1.7c0.2,0.5,0.5,1,0.9,1.4c0.4,0.4,0.9,0.7,1.4,1
		c0.6,0.2,1.3,0.4,2.1,0.4c0.8,0,1.5-0.1,2.1-0.4c0.6-0.2,1.1-0.6,1.4-1c0.4-0.4,0.7-0.9,0.9-1.4c0.2-0.5,0.4-1.1,0.5-1.7
		c0.1-0.6,0.2-1.2,0.2-1.8c0-0.6,0-1.2,0-1.8s0-1.2,0-1.8C695.3,237.4,695.2,236.8,695.1,236.2z M693.3,241.1c0,0.5,0,0.9-0.1,1.4
		c-0.1,0.5-0.2,0.9-0.3,1.4c-0.1,0.4-0.3,0.8-0.6,1.2c-0.2,0.3-0.5,0.6-0.9,0.8c-0.4,0.2-0.8,0.3-1.4,0.3c-0.5,0-1-0.1-1.3-0.3
		c-0.4-0.2-0.7-0.5-0.9-0.8c-0.2-0.3-0.4-0.7-0.6-1.2c-0.1-0.4-0.2-0.9-0.3-1.4c-0.1-0.5-0.1-0.9-0.1-1.4c0-0.5,0-0.9,0-1.3
		c0-0.6,0-1.2,0.1-2c0-0.7,0.2-1.4,0.4-2.1c0.2-0.6,0.5-1.2,1-1.6c0.4-0.4,1.1-0.7,1.9-0.7c0.8,0,1.4,0.2,1.9,0.7
		c0.4,0.4,0.8,1,1,1.6s0.3,1.3,0.4,2.1c0,0.7,0.1,1.4,0.1,2C693.4,240.2,693.4,240.7,693.3,241.1z"/>
	<path fill="#FFFFFF" d="M399.7,106.3c-0.1-0.6-0.3-1.2-0.5-1.7c-0.2-0.5-0.5-1-0.9-1.4c-0.4-0.4-0.9-0.7-1.4-1
		c-0.6-0.2-1.3-0.4-2.1-0.4c-0.8,0-1.5,0.1-2.1,0.4c-0.6,0.2-1.1,0.6-1.4,1c-0.4,0.4-0.7,0.9-0.9,1.4c-0.2,0.5-0.4,1.1-0.5,1.7
		c-0.1,0.6-0.2,1.2-0.2,1.8c0,0.6,0,1.2,0,1.8s0,1.2,0,1.8c0,0.6,0.1,1.2,0.2,1.8c0.1,0.6,0.3,1.1,0.5,1.7c0.2,0.5,0.5,1,0.9,1.4
		c0.4,0.4,0.9,0.7,1.4,0.9s1.3,0.3,2.1,0.3c0.8,0,1.5-0.1,2.1-0.3c0.6-0.2,1.1-0.5,1.4-0.9c0.4-0.4,0.7-0.9,0.9-1.4
		c0.2-0.5,0.4-1.1,0.5-1.7s0.2-1.2,0.2-1.8c0-0.6,0-1.2,0-1.8s0-1.2,0-1.8C399.9,107.5,399.8,106.9,399.7,106.3z M397.9,111.9
		c0,0.7-0.2,1.4-0.4,2.1c-0.2,0.6-0.5,1.2-1,1.6c-0.4,0.4-1.1,0.7-1.9,0.7c-0.8,0-1.4-0.2-1.9-0.7c-0.4-0.4-0.8-1-1-1.6
		s-0.3-1.3-0.4-2.1c0-0.7-0.1-1.4-0.1-2c0-0.4,0-0.8,0-1.3c0-0.5,0-0.9,0.1-1.4c0.1-0.5,0.2-0.9,0.3-1.4c0.1-0.4,0.3-0.8,0.6-1.2
		c0.2-0.3,0.5-0.6,0.9-0.8c0.4-0.2,0.8-0.3,1.4-0.3c0.5,0,1,0.1,1.3,0.3c0.4,0.2,0.7,0.5,0.9,0.8c0.2,0.3,0.4,0.7,0.6,1.2
		c0.1,0.4,0.2,0.9,0.3,1.4c0.1,0.5,0.1,0.9,0.1,1.4c0,0.5,0,0.9,0,1.3C398,110.5,398,111.1,397.9,111.9z"/>
	<path fill="#FFFFFF" d="M407.1,118.8l1.8,0.5l4-15.2l-1.4-0.4c-0.2,0.5-0.6,1-0.9,1.3c-0.4,0.3-0.8,0.5-1.2,0.6
		c-0.4,0.1-0.9,0.1-1.4,0.1c-0.5,0-1-0.1-1.5-0.3l-0.4,1.5l3.9,1L407.1,118.8z"/>
	<path fill="#FFFFFF" d="M420.2,124.5l8.3-13.3l-1.2-0.8c-0.4,0.4-0.8,0.8-1.3,0.9c-0.4,0.2-0.9,0.3-1.4,0.2s-0.9-0.1-1.4-0.3
		c-0.5-0.2-0.9-0.4-1.4-0.7l-0.8,1.3l3.5,2.2l-5.9,9.5L420.2,124.5z"/>
	<path fill="#FFFFFF" d="M430.1,134.2c0.5,0.1,1.1,0.1,1.7,0c0.6-0.1,1.1-0.3,1.7-0.5c0.6-0.2,1.1-0.5,1.6-0.8
		c0.5-0.3,1-0.6,1.5-0.9c0.5-0.3,1-0.7,1.5-1s1-0.8,1.4-1.2c0.4-0.4,0.8-0.9,1.1-1.3c0.3-0.5,0.5-1,0.7-1.5c0.1-0.5,0.1-1.1,0-1.7
		s-0.4-1.3-0.8-1.9c-0.4-0.7-0.9-1.2-1.4-1.6c-0.5-0.4-1-0.6-1.6-0.7c-0.5-0.1-1.1-0.1-1.7,0s-1.1,0.3-1.7,0.5s-1.1,0.5-1.6,0.8
		s-1,0.6-1.5,0.9s-1,0.7-1.5,1s-1,0.8-1.4,1.2c-0.4,0.4-0.8,0.9-1.1,1.3c-0.3,0.5-0.5,1-0.7,1.5s-0.1,1.1,0,1.7
		c0.1,0.6,0.4,1.3,0.9,1.9c0.5,0.7,0.9,1.2,1.4,1.6C429.1,133.9,429.6,134.1,430.1,134.2z M428.1,129.1c0.1-0.6,0.4-1.2,0.8-1.7
		c0.4-0.5,0.9-1,1.5-1.4s1.1-0.8,1.6-1.1c0.3-0.2,0.7-0.4,1.1-0.7c0.4-0.2,0.8-0.5,1.2-0.7c0.4-0.2,0.9-0.4,1.3-0.5
		c0.4-0.1,0.9-0.2,1.3-0.2c0.4,0,0.8,0.1,1.2,0.3c0.4,0.2,0.7,0.5,1,1s0.4,0.9,0.5,1.3c0,0.4,0,0.8-0.2,1.2
		c-0.1,0.4-0.4,0.8-0.7,1.1c-0.3,0.3-0.6,0.7-1,1c-0.4,0.3-0.7,0.6-1.1,0.9c-0.4,0.3-0.7,0.5-1.1,0.7c-0.5,0.3-1.1,0.7-1.7,1
		s-1.3,0.6-1.9,0.8s-1.3,0.2-1.9,0.1s-1.1-0.5-1.6-1.2C428.1,130.4,427.9,129.7,428.1,129.1z"/>
	<path fill="#FFFFFF" d="M431.1,142.7l0.2,1.9l15.6-1.6l-0.1-1.4c-0.6,0-1.1-0.2-1.5-0.4c-0.4-0.2-0.7-0.6-1-0.9
		c-0.3-0.4-0.5-0.8-0.6-1.3c-0.1-0.5-0.2-1-0.3-1.5l-1.5,0.1l0.4,4.1L431.1,142.7z"/>
	<path fill="#FFFFFF" d="M445.7,152.6c-0.4-0.4-0.9-0.7-1.4-0.9c-0.5-0.2-1.1-0.4-1.7-0.5c-0.6-0.1-1.2-0.2-1.8-0.2
		c-0.6,0-1.2,0-1.8,0s-1.2,0-1.8,0c-0.6,0-1.2,0.1-1.8,0.2c-0.6,0.1-1.1,0.3-1.7,0.5c-0.5,0.2-1,0.5-1.4,0.9
		c-0.4,0.4-0.7,0.9-0.9,1.4s-0.3,1.3-0.3,2.1c0,0.8,0.1,1.5,0.3,2.1c0.2,0.6,0.5,1.1,0.9,1.4c0.4,0.4,0.9,0.7,1.4,0.9
		c0.5,0.2,1.1,0.4,1.7,0.5s1.2,0.2,1.8,0.2c0.6,0,1.2,0,1.8,0s1.2,0,1.8,0c0.6,0,1.2-0.1,1.8-0.2s1.2-0.3,1.7-0.5
		c0.5-0.2,1-0.5,1.4-0.9c0.4-0.4,0.7-0.9,1-1.4c0.2-0.6,0.4-1.3,0.4-2.1c0-0.8-0.1-1.5-0.4-2.1C446.4,153.4,446.1,153,445.7,152.6z
		 M445,157.5c-0.2,0.4-0.5,0.7-0.8,0.9c-0.3,0.2-0.7,0.4-1.2,0.6c-0.4,0.1-0.9,0.2-1.4,0.3c-0.5,0.1-0.9,0.1-1.4,0.1
		c-0.5,0-0.9,0-1.3,0c-0.6,0-1.2,0-2-0.1c-0.7,0-1.4-0.2-2.1-0.4c-0.6-0.2-1.2-0.5-1.6-1c-0.4-0.4-0.7-1.1-0.7-1.9
		c0-0.8,0.2-1.4,0.7-1.9c0.4-0.4,1-0.8,1.6-1s1.3-0.3,2.1-0.4c0.7,0,1.4-0.1,2-0.1c0.4,0,0.8,0,1.3,0c0.5,0,0.9,0,1.4,0.1
		c0.5,0.1,0.9,0.2,1.4,0.3c0.4,0.1,0.8,0.3,1.2,0.6c0.3,0.2,0.6,0.5,0.8,0.9c0.2,0.4,0.3,0.8,0.3,1.4
		C445.3,156.6,445.2,157.1,445,157.5z"/>
	<path fill="#FFFFFF" d="M447,170c-0.6-0.1-1.1-0.3-1.5-0.6c-0.4-0.3-0.7-0.6-0.9-1s-0.4-0.9-0.5-1.4c-0.1-0.5-0.1-1-0.1-1.5h-1.5
		v4.1h-11.2v1.9H447V170z"/>
	<path fill="#FFFFFF" d="M431.4,185.5c0.2,0.6,0.5,1.1,0.9,1.4c0.4,0.4,0.9,0.7,1.4,0.9c0.5,0.2,1.1,0.4,1.7,0.5s1.2,0.2,1.8,0.2
		c0.6,0,1.2,0,1.8,0s1.2,0,1.8,0c0.6,0,1.2-0.1,1.8-0.2s1.2-0.3,1.7-0.5c0.5-0.2,1-0.5,1.4-0.9c0.4-0.4,0.7-0.9,1-1.4
		c0.2-0.6,0.4-1.3,0.4-2.1c0-0.8-0.1-1.5-0.4-2.1c-0.2-0.6-0.6-1.1-1-1.4c-0.4-0.4-0.9-0.7-1.4-0.9c-0.5-0.2-1.1-0.4-1.7-0.5
		c-0.6-0.1-1.2-0.2-1.8-0.2c-0.6,0-1.2,0-1.8,0s-1.2,0-1.8,0c-0.6,0-1.2,0.1-1.8,0.2c-0.6,0.1-1.1,0.3-1.7,0.5
		c-0.5,0.2-1,0.5-1.4,0.9c-0.4,0.4-0.7,0.9-0.9,1.4s-0.3,1.3-0.3,2.1C431,184.2,431.2,184.9,431.4,185.5z M433.3,181.5
		c0.4-0.4,1-0.8,1.6-1s1.3-0.3,2.1-0.4c0.7,0,1.4-0.1,2-0.1c0.4,0,0.8,0,1.3,0c0.5,0,0.9,0,1.4,0.1c0.5,0.1,0.9,0.2,1.4,0.3
		c0.4,0.1,0.8,0.3,1.2,0.6c0.3,0.2,0.6,0.5,0.8,0.9c0.2,0.4,0.3,0.8,0.3,1.4c0,0.5-0.1,1-0.3,1.3c-0.2,0.4-0.5,0.7-0.8,0.9
		c-0.3,0.2-0.7,0.4-1.2,0.6c-0.4,0.1-0.9,0.2-1.4,0.3c-0.5,0.1-0.9,0.1-1.4,0.1c-0.5,0-0.9,0-1.3,0c-0.6,0-1.2,0-2-0.1
		c-0.7,0-1.4-0.2-2.1-0.4c-0.6-0.2-1.2-0.5-1.6-1c-0.4-0.4-0.7-1.1-0.7-1.9C432.7,182.6,432.9,182,433.3,181.5z"/>
	<path fill="#FFFFFF" d="M444.6,195.7c-0.2-0.4-0.4-0.9-0.5-1.4c-0.1-0.5-0.1-1-0.1-1.5h-1.5v4.1h-11.2v1.9H447v-1.4
		c-0.6-0.1-1.1-0.3-1.5-0.6C445.1,196.5,444.8,196.1,444.6,195.7z"/>
	<path fill="#FFFFFF" d="M431.4,212.8c0.2,0.6,0.5,1.1,0.9,1.4c0.4,0.4,0.9,0.7,1.4,0.9c0.5,0.2,1.1,0.4,1.7,0.5s1.2,0.2,1.8,0.2
		c0.6,0,1.2,0,1.8,0s1.2,0,1.8,0c0.6,0,1.2-0.1,1.8-0.2s1.2-0.3,1.7-0.5c0.5-0.2,1-0.5,1.4-0.9c0.4-0.4,0.7-0.9,1-1.4
		c0.2-0.6,0.4-1.3,0.4-2.1c0-0.8-0.1-1.5-0.4-2.1c-0.2-0.6-0.6-1.1-1-1.4c-0.4-0.4-0.9-0.7-1.4-0.9c-0.5-0.2-1.1-0.4-1.7-0.5
		c-0.6-0.1-1.2-0.2-1.8-0.2c-0.6,0-1.2,0-1.8,0s-1.2,0-1.8,0c-0.6,0-1.2,0.1-1.8,0.2c-0.6,0.1-1.1,0.3-1.7,0.5
		c-0.5,0.2-1,0.5-1.4,0.9c-0.4,0.4-0.7,0.9-0.9,1.4s-0.3,1.3-0.3,2.1C431,211.5,431.2,212.2,431.4,212.8z M433.3,208.8
		c0.4-0.4,1-0.8,1.6-1s1.3-0.3,2.1-0.4c0.7,0,1.4-0.1,2-0.1c0.4,0,0.8,0,1.3,0c0.5,0,0.9,0,1.4,0.1c0.5,0.1,0.9,0.2,1.4,0.3
		c0.4,0.1,0.8,0.3,1.2,0.6c0.3,0.2,0.6,0.5,0.8,0.9c0.2,0.4,0.3,0.8,0.3,1.4c0,0.5-0.1,1-0.3,1.3c-0.2,0.4-0.5,0.7-0.8,0.9
		c-0.3,0.2-0.7,0.4-1.2,0.6c-0.4,0.1-0.9,0.2-1.4,0.3c-0.5,0.1-0.9,0.1-1.4,0.1c-0.5,0-0.9,0-1.3,0c-0.6,0-1.2,0-2-0.1
		c-0.7,0-1.4-0.2-2.1-0.4c-0.6-0.2-1.2-0.5-1.6-1c-0.4-0.4-0.7-1.1-0.7-1.9C432.7,209.9,432.9,209.2,433.3,208.8z"/>
	<path fill="#FFFFFF" d="M444.6,222.9c-0.2-0.4-0.4-0.8-0.5-1.3s-0.1-1-0.2-1.5l-1.5,0l0.1,4.1l-11.2,0.3l0.1,1.9l15.7-0.4l0-1.4
		c-0.6-0.1-1.1-0.3-1.5-0.5C445.1,223.6,444.8,223.3,444.6,222.9z"/>
	<path fill="#FFFFFF" d="M445,230.6c-0.4,0.4-0.8,0.9-1.1,1.4s-0.6,1-0.9,1.6c-0.3,0.6-0.5,1.1-0.7,1.6c-0.2,0.5-0.4,1.1-0.6,1.7
		c-0.2,0.6-0.4,1.2-0.5,1.8c-0.1,0.6-0.2,1.2-0.2,1.7c0,0.6,0.1,1.1,0.3,1.6c0.2,0.5,0.5,1,1,1.4c0.5,0.4,1.1,0.8,1.8,1.1
		c0.8,0.3,1.5,0.5,2.1,0.5c0.6,0,1.2-0.1,1.7-0.3c0.5-0.2,1-0.5,1.4-0.9c0.4-0.4,0.8-0.9,1.1-1.4c0.3-0.5,0.6-1,0.9-1.6
		c0.3-0.6,0.5-1.1,0.7-1.6c0.2-0.5,0.4-1.1,0.6-1.7c0.2-0.6,0.4-1.2,0.5-1.8c0.1-0.6,0.2-1.2,0.2-1.7s-0.1-1.1-0.3-1.6
		c-0.2-0.5-0.5-1-1-1.4c-0.5-0.4-1.1-0.8-1.8-1.1c-0.8-0.3-1.4-0.5-2.1-0.5c-0.6,0-1.2,0.1-1.7,0.3
		C445.8,229.9,445.4,230.2,445,230.6z M447,231.5c0.4-0.2,0.7-0.3,1.2-0.4c0.4-0.1,0.9,0,1.4,0.2c0.5,0.2,0.9,0.5,1.1,0.8
		c0.3,0.3,0.4,0.7,0.5,1.1c0.1,0.4,0.1,0.8,0.1,1.3c-0.1,0.5-0.1,0.9-0.2,1.4c-0.1,0.5-0.3,0.9-0.4,1.3s-0.3,0.8-0.5,1.2
		c-0.2,0.5-0.5,1.1-0.8,1.8c-0.3,0.7-0.7,1.3-1.1,1.8s-0.9,0.9-1.5,1.1s-1.2,0.2-2-0.1c-0.7-0.3-1.2-0.7-1.5-1.3
		c-0.2-0.6-0.3-1.2-0.3-1.9c0.1-0.7,0.2-1.3,0.5-2s0.5-1.3,0.7-1.9c0.1-0.4,0.3-0.7,0.5-1.2c0.2-0.4,0.4-0.8,0.6-1.2
		c0.2-0.4,0.5-0.8,0.8-1.2C446.3,232,446.6,231.7,447,231.5z"/>
	<path fill="#FFFFFF" d="M461.3,246h1.9v-15.7h-1.4c-0.1,0.6-0.3,1.1-0.6,1.5c-0.3,0.4-0.6,0.7-1,0.9s-0.9,0.4-1.4,0.5
		c-0.5,0.1-1,0.1-1.5,0.1v1.5h4.1V246z"/>
	<path fill="#FFFFFF" d="M314.1,401.5c0.2,0.6,0.6,1.1,1,1.4c0.4,0.4,0.9,0.7,1.4,0.9c0.5,0.2,1.1,0.4,1.7,0.5
		c0.6,0.1,1.2,0.2,1.8,0.2c0.6,0,1.2,0,1.8,0s1.2,0,1.8,0c0.6,0,1.2-0.1,1.8-0.2c0.6-0.1,1.1-0.3,1.7-0.5c0.5-0.2,1-0.5,1.4-0.9
		c0.4-0.4,0.7-0.9,0.9-1.4s0.3-1.3,0.3-2.1c0-0.8-0.1-1.5-0.3-2.1c-0.2-0.6-0.5-1.1-0.9-1.4c-0.4-0.4-0.9-0.7-1.4-0.9
		c-0.5-0.2-1.1-0.4-1.7-0.5s-1.2-0.2-1.8-0.2c-0.6,0-1.2,0-1.8,0s-1.2,0-1.8,0c-0.6,0-1.2,0.1-1.8,0.2s-1.2,0.3-1.7,0.5
		c-0.5,0.2-1,0.5-1.4,0.9c-0.4,0.4-0.7,0.9-1,1.4c-0.2,0.6-0.4,1.3-0.4,2.1C313.7,400.2,313.9,400.9,314.1,401.5z M315.7,398.1
		c0.2-0.4,0.5-0.7,0.8-0.9c0.3-0.2,0.7-0.4,1.2-0.6c0.4-0.1,0.9-0.2,1.4-0.3c0.5-0.1,0.9-0.1,1.4-0.1c0.5,0,0.9,0,1.3,0
		c0.6,0,1.2,0,2,0.1c0.7,0,1.4,0.2,2.1,0.4c0.6,0.2,1.2,0.5,1.6,1c0.4,0.4,0.7,1.1,0.7,1.9c0,0.8-0.2,1.4-0.7,1.9
		c-0.4,0.4-1,0.8-1.6,1s-1.3,0.3-2.1,0.4c-0.7,0-1.4,0.1-2,0.1c-0.4,0-0.8,0-1.3,0c-0.5,0-0.9,0-1.4-0.1c-0.5-0.1-0.9-0.2-1.4-0.3
		c-0.4-0.1-0.8-0.3-1.2-0.6c-0.3-0.2-0.6-0.5-0.8-0.9c-0.2-0.4-0.3-0.8-0.3-1.4C315.4,398.9,315.5,398.4,315.7,398.1z"/>
	<path fill="#FFFFFF" d="M316.1,387.1c0.2,0.4,0.4,0.9,0.5,1.4c0.1,0.5,0.1,1,0.1,1.5h1.5V386h11.2v-1.9h-15.7v1.4
		c0.6,0.1,1.1,0.3,1.5,0.6C315.6,386.4,315.9,386.7,316.1,387.1z"/>
	<path fill="#FFFFFF" d="M329.3,370.1c-0.2-0.6-0.5-1.1-0.9-1.4c-0.4-0.4-0.9-0.7-1.4-0.9c-0.5-0.2-1.1-0.4-1.7-0.5
		s-1.2-0.2-1.8-0.2c-0.6,0-1.2,0-1.8,0s-1.2,0-1.8,0c-0.6,0-1.2,0.1-1.8,0.2s-1.2,0.3-1.7,0.5c-0.5,0.2-1,0.5-1.4,0.9
		c-0.4,0.4-0.7,0.9-1,1.4c-0.2,0.6-0.4,1.3-0.4,2.1c0,0.8,0.1,1.5,0.4,2.1c0.2,0.6,0.6,1.1,1,1.4c0.4,0.4,0.9,0.7,1.4,0.9
		c0.5,0.2,1.1,0.4,1.7,0.5c0.6,0.1,1.2,0.2,1.8,0.2c0.6,0,1.2,0,1.8,0s1.2,0,1.8,0c0.6,0,1.2-0.1,1.8-0.2c0.6-0.1,1.1-0.3,1.7-0.5
		c0.5-0.2,1-0.5,1.4-0.9c0.4-0.4,0.7-0.9,0.9-1.4s0.3-1.3,0.3-2.1C329.7,371.3,329.6,370.6,329.3,370.1z M327.4,374
		c-0.4,0.4-1,0.8-1.6,1s-1.3,0.3-2.1,0.4c-0.7,0-1.4,0.1-2,0.1c-0.4,0-0.8,0-1.3,0c-0.5,0-0.9,0-1.4-0.1c-0.5-0.1-0.9-0.2-1.4-0.3
		c-0.4-0.1-0.8-0.3-1.2-0.6c-0.3-0.2-0.6-0.5-0.8-0.9c-0.2-0.4-0.3-0.8-0.3-1.4c0-0.5,0.1-1,0.3-1.3c0.2-0.4,0.5-0.7,0.8-0.9
		c0.3-0.2,0.7-0.4,1.2-0.6c0.4-0.1,0.9-0.2,1.4-0.3c0.5-0.1,0.9-0.1,1.4-0.1c0.5,0,0.9,0,1.3,0c0.6,0,1.2,0,2,0.1
		c0.7,0,1.4,0.2,2.1,0.4c0.6,0.2,1.2,0.5,1.6,1c0.4,0.4,0.7,1.1,0.7,1.9C328,373,327.8,373.6,327.4,374z"/>
	<path fill="#FFFFFF" d="M316.1,359.9c0.2,0.4,0.4,0.9,0.5,1.4c0.1,0.5,0.1,1,0.1,1.5h1.5v-4.1h11.2v-1.9h-15.7v1.4
		c0.6,0.1,1.1,0.3,1.5,0.6C315.6,359.1,315.9,359.4,316.1,359.9z"/>
	<path fill="#FFFFFF" d="M329.4,342.9c-0.2-0.6-0.5-1.1-0.9-1.5s-0.8-0.7-1.4-1s-1.1-0.4-1.7-0.6c-0.6-0.1-1.2-0.2-1.8-0.3
		s-1.2-0.1-1.8-0.1c-0.6,0-1.2,0-1.8,0s-1.2,0.1-1.8,0.2c-0.6,0.1-1.2,0.3-1.7,0.5c-0.5,0.2-1,0.5-1.4,0.9c-0.4,0.4-0.7,0.8-1,1.4
		c-0.3,0.6-0.4,1.3-0.4,2.1c0,0.8,0.1,1.5,0.3,2.1c0.2,0.6,0.5,1.1,0.9,1.5c0.4,0.4,0.8,0.7,1.4,1c0.5,0.2,1.1,0.4,1.7,0.6
		s1.2,0.2,1.8,0.3c0.6,0,1.2,0.1,1.8,0.1c0.6,0,1.2,0,1.8,0s1.2-0.1,1.8-0.2c0.6-0.1,1.2-0.3,1.7-0.5c0.5-0.2,1-0.5,1.4-0.9
		c0.4-0.4,0.7-0.8,1-1.4c0.2-0.6,0.4-1.3,0.4-2.1C329.7,344.2,329.6,343.5,329.4,342.9z M327.3,346.8c-0.5,0.4-1,0.7-1.7,0.9
		c-0.6,0.2-1.3,0.3-2.1,0.3c-0.7,0-1.4,0-2,0c-0.4,0-0.8,0-1.3-0.1s-0.9-0.1-1.4-0.2s-0.9-0.2-1.4-0.3c-0.4-0.1-0.8-0.3-1.1-0.6
		c-0.3-0.3-0.6-0.6-0.8-0.9s-0.3-0.8-0.3-1.4s0.1-1,0.4-1.3c0.2-0.4,0.5-0.7,0.8-0.9c0.3-0.2,0.7-0.4,1.2-0.5
		c0.4-0.1,0.9-0.2,1.4-0.2c0.5-0.1,0.9-0.1,1.4-0.1c0.5,0,0.9,0,1.3,0c0.6,0,1.2,0.1,2,0.1c0.7,0.1,1.4,0.2,2,0.4
		c0.6,0.2,1.2,0.6,1.6,1s0.6,1.1,0.6,1.9C328,345.8,327.8,346.4,327.3,346.8z"/>
	<path fill="#FFFFFF" d="M320.6,325.5c0.4,0.4,0.7,0.8,0.9,1.3c0.2,0.4,0.2,0.9,0.2,1.4c0,0.5-0.2,0.9-0.4,1.4
		c-0.2,0.5-0.5,0.9-0.8,1.4l1.3,0.8l2.3-3.4l9.4,6.2l1-1.6l-13.1-8.7L320.6,325.5z"/>
	<path fill="#FFFFFF" d="M334.9,312c-0.6,0.1-1.3,0.4-1.9,0.9c-0.7,0.5-1.2,1-1.5,1.5c-0.3,0.5-0.6,1.1-0.6,1.6
		c-0.1,0.5-0.1,1.1,0.1,1.7c0.1,0.6,0.3,1.1,0.5,1.7c0.2,0.6,0.5,1.1,0.9,1.6c0.3,0.5,0.7,1,1,1.5s0.7,1,1.1,1.4
		c0.4,0.5,0.8,0.9,1.2,1.4c0.4,0.4,0.9,0.8,1.4,1.1c0.5,0.3,1,0.5,1.5,0.6c0.5,0.1,1.1,0.1,1.7-0.1s1.2-0.5,1.9-0.9
		c0.7-0.5,1.2-1,1.5-1.5c0.3-0.5,0.6-1,0.6-1.6c0.1-0.5,0.1-1.1-0.1-1.7c-0.1-0.6-0.3-1.1-0.5-1.7c-0.2-0.6-0.5-1.1-0.9-1.6
		c-0.3-0.5-0.7-1-1-1.5s-0.7-1-1.1-1.4c-0.4-0.5-0.8-0.9-1.2-1.4c-0.4-0.4-0.9-0.8-1.4-1.1s-1-0.5-1.5-0.6
		C336.1,311.9,335.5,311.9,334.9,312z M338.6,315.5c0.3,0.3,0.6,0.7,0.9,1.1c0.3,0.4,0.5,0.7,0.7,1c0.3,0.5,0.7,1,1.1,1.7
		c0.4,0.6,0.7,1.2,0.9,1.9c0.2,0.6,0.3,1.3,0.1,1.9c-0.1,0.6-0.5,1.2-1.1,1.6c-0.7,0.5-1.3,0.6-1.9,0.5c-0.6-0.1-1.2-0.4-1.7-0.8
		c-0.5-0.4-1-0.9-1.5-1.5c-0.4-0.6-0.8-1.1-1.2-1.6c-0.2-0.3-0.5-0.7-0.7-1c-0.3-0.4-0.5-0.8-0.7-1.2c-0.2-0.4-0.4-0.8-0.5-1.3
		c-0.2-0.4-0.2-0.9-0.2-1.3c0-0.4,0.1-0.8,0.3-1.2c0.2-0.4,0.5-0.7,0.9-1c0.4-0.3,0.9-0.5,1.3-0.5c0.4,0,0.8,0,1.2,0.1
		c0.4,0.1,0.8,0.3,1.1,0.6C337.9,314.8,338.2,315.1,338.6,315.5z"/>
	<path fill="#FFFFFF" d="M349.3,305.4c0.1,0.6,0,1.1-0.2,1.6c-0.2,0.4-0.4,0.8-0.8,1.1c-0.3,0.3-0.7,0.6-1.2,0.8s-0.9,0.4-1.5,0.5
		l0.4,1.5l3.9-1.1l3,10.8l1.8-0.5l-4.1-15.1L349.3,305.4z"/>
	<path fill="#FFFFFF" d="M370.4,307.6c-0.1-0.6-0.3-1.1-0.5-1.7c-0.2-0.5-0.5-1-0.9-1.4c-0.4-0.4-0.9-0.7-1.5-0.9
		c-0.6-0.2-1.3-0.3-2.1-0.3s-1.5,0.1-2.1,0.4c-0.6,0.2-1.1,0.6-1.4,1c-0.4,0.4-0.7,0.9-0.9,1.4c-0.2,0.5-0.4,1.1-0.5,1.7
		c-0.1,0.6-0.2,1.2-0.2,1.8c0,0.6,0,1.2,0,1.8c0,0.6,0,1.2,0.1,1.8c0,0.6,0.1,1.2,0.2,1.8c0.1,0.6,0.3,1.1,0.5,1.7s0.5,1,0.9,1.4
		c0.4,0.4,0.9,0.7,1.5,0.9c0.6,0.2,1.3,0.3,2.1,0.3c0.8,0,1.5-0.1,2.1-0.4c0.6-0.2,1-0.6,1.4-1s0.7-0.9,0.9-1.4
		c0.2-0.5,0.4-1.1,0.5-1.7s0.2-1.2,0.2-1.8c0-0.6,0-1.2,0-1.8c0-0.6,0-1.2-0.1-1.8C370.6,308.8,370.5,308.2,370.4,307.6z
		 M368.7,313.2c0,0.7-0.1,1.4-0.3,2.1c-0.2,0.6-0.5,1.2-0.9,1.6c-0.4,0.4-1.1,0.7-1.8,0.7c-0.8,0-1.4-0.2-1.9-0.6s-0.8-1-1-1.6
		c-0.2-0.6-0.3-1.3-0.4-2.1c0-0.7-0.1-1.4-0.1-2c0-0.4,0-0.8,0-1.3c0-0.5,0-0.9,0.1-1.4c0.1-0.5,0.1-0.9,0.3-1.4
		c0.1-0.4,0.3-0.8,0.5-1.2s0.5-0.6,0.9-0.8c0.4-0.2,0.8-0.3,1.3-0.3c0.5,0,1,0.1,1.4,0.3c0.4,0.2,0.7,0.5,0.9,0.8s0.4,0.7,0.6,1.2
		c0.1,0.4,0.2,0.9,0.3,1.4c0.1,0.5,0.1,0.9,0.1,1.4c0,0.5,0,0.9,0,1.3C368.7,311.8,368.7,312.5,368.7,313.2z"/>
	<path fill="#FFFFFF" d="M378.9,304.8c-0.3,0.4-0.6,0.7-1,0.9s-0.9,0.4-1.4,0.5c-0.5,0.1-1,0.1-1.5,0.1v1.5h4.1V319h1.9v-15.7h-1.4
		C379.4,303.9,379.2,304.4,378.9,304.8z"/>
	<path fill="#FFFFFF" d="M392.5,304.8c-0.3,0.4-0.6,0.7-1,0.9s-0.9,0.4-1.4,0.5c-0.5,0.1-1,0.1-1.5,0.1v1.5h4.1V319h1.9v-15.7h-1.4
		C393,303.9,392.8,304.4,392.5,304.8z"/>
	<path fill="#FFFFFF" d="M411.4,307.7c-0.1-0.6-0.3-1.2-0.5-1.7c-0.2-0.5-0.5-1-0.9-1.4c-0.4-0.4-0.9-0.7-1.4-1
		c-0.6-0.2-1.3-0.4-2.1-0.4c-0.8,0-1.5,0.1-2.1,0.4c-0.6,0.2-1.1,0.6-1.4,1c-0.4,0.4-0.7,0.9-0.9,1.4c-0.2,0.5-0.4,1.1-0.5,1.7
		c-0.1,0.6-0.2,1.2-0.2,1.8c0,0.6,0,1.2,0,1.8s0,1.2,0,1.8c0,0.6,0.1,1.2,0.2,1.8c0.1,0.6,0.3,1.1,0.5,1.7c0.2,0.5,0.5,1,0.9,1.4
		c0.4,0.4,0.9,0.7,1.4,0.9s1.3,0.3,2.1,0.3c0.8,0,1.5-0.1,2.1-0.3c0.6-0.2,1.1-0.5,1.4-0.9c0.4-0.4,0.7-0.9,0.9-1.4
		c0.2-0.5,0.4-1.1,0.5-1.7s0.2-1.2,0.2-1.8c0-0.6,0-1.2,0-1.8s0-1.2,0-1.8C411.6,308.9,411.6,308.3,411.4,307.7z M409.7,313.3
		c0,0.7-0.2,1.4-0.4,2.1c-0.2,0.6-0.5,1.2-1,1.6c-0.4,0.4-1.1,0.7-1.9,0.7c-0.8,0-1.4-0.2-1.9-0.7c-0.4-0.4-0.8-1-1-1.6
		s-0.3-1.3-0.4-2.1c0-0.7-0.1-1.4-0.1-2c0-0.4,0-0.8,0-1.3c0-0.5,0-0.9,0.1-1.4c0.1-0.5,0.2-0.9,0.3-1.4c0.1-0.4,0.3-0.8,0.6-1.2
		c0.2-0.3,0.5-0.6,0.9-0.8c0.4-0.2,0.8-0.3,1.4-0.3c0.5,0,1,0.1,1.3,0.3c0.4,0.2,0.7,0.5,0.9,0.8c0.2,0.3,0.4,0.7,0.6,1.2
		c0.1,0.4,0.2,0.9,0.3,1.4c0.1,0.5,0.1,0.9,0.1,1.4c0,0.5,0,0.9,0,1.3C409.7,311.9,409.7,312.5,409.7,313.3z"/>
	<path fill="#FFFFFF" d="M419.8,304.8c-0.3,0.4-0.6,0.7-1,0.9s-0.9,0.4-1.4,0.5c-0.5,0.1-1,0.1-1.5,0.1v1.5h4.1V319h1.9v-15.7h-1.4
		C420.3,303.9,420.1,304.4,419.8,304.8z"/>
	<path fill="#FFFFFF" d="M438.7,307.7c-0.1-0.6-0.3-1.2-0.5-1.7c-0.2-0.5-0.5-1-0.9-1.4c-0.4-0.4-0.9-0.7-1.4-1
		c-0.6-0.2-1.3-0.4-2.1-0.4c-0.8,0-1.5,0.1-2.1,0.4c-0.6,0.2-1.1,0.6-1.4,1c-0.4,0.4-0.7,0.9-0.9,1.4c-0.2,0.5-0.4,1.1-0.5,1.7
		c-0.1,0.6-0.2,1.2-0.2,1.8c0,0.6,0,1.2,0,1.8s0,1.2,0,1.8c0,0.6,0.1,1.2,0.2,1.8c0.1,0.6,0.3,1.1,0.5,1.7c0.2,0.5,0.5,1,0.9,1.4
		c0.4,0.4,0.9,0.7,1.4,0.9s1.3,0.3,2.1,0.3c0.8,0,1.5-0.1,2.1-0.3c0.6-0.2,1.1-0.5,1.4-0.9c0.4-0.4,0.7-0.9,0.9-1.4
		c0.2-0.5,0.4-1.1,0.5-1.7s0.2-1.2,0.2-1.8c0-0.6,0-1.2,0-1.8s0-1.2,0-1.8C438.9,308.9,438.8,308.3,438.7,307.7z M436.9,313.3
		c0,0.7-0.2,1.4-0.4,2.1c-0.2,0.6-0.5,1.2-1,1.6c-0.4,0.4-1.1,0.7-1.9,0.7c-0.8,0-1.4-0.2-1.9-0.7c-0.4-0.4-0.8-1-1-1.6
		s-0.3-1.3-0.4-2.1c0-0.7-0.1-1.4-0.1-2c0-0.4,0-0.8,0-1.3c0-0.5,0-0.9,0.1-1.4c0.1-0.5,0.2-0.9,0.3-1.4c0.1-0.4,0.3-0.8,0.6-1.2
		c0.2-0.3,0.5-0.6,0.9-0.8c0.4-0.2,0.8-0.3,1.4-0.3c0.5,0,1,0.1,1.3,0.3c0.4,0.2,0.7,0.5,0.9,0.8c0.2,0.3,0.4,0.7,0.6,1.2
		c0.1,0.4,0.2,0.9,0.3,1.4c0.1,0.5,0.1,0.9,0.1,1.4c0,0.5,0,0.9,0,1.3C437,311.9,437,312.5,436.9,313.3z"/>
	<path fill="#FFFFFF" d="M447.1,304.8c-0.3,0.4-0.6,0.7-1,0.9s-0.9,0.4-1.4,0.5c-0.5,0.1-1,0.1-1.5,0.1v1.5h4.1V319h1.9v-15.7h-1.4
		C447.6,303.9,447.4,304.4,447.1,304.8z"/>
	<path fill="#FFFFFF" d="M466,307.7c-0.1-0.6-0.3-1.2-0.5-1.7c-0.2-0.5-0.5-1-0.9-1.4c-0.4-0.4-0.9-0.7-1.4-1
		c-0.6-0.2-1.3-0.4-2.1-0.4c-0.8,0-1.5,0.1-2.1,0.4c-0.6,0.2-1.1,0.6-1.4,1c-0.4,0.4-0.7,0.9-0.9,1.4c-0.2,0.5-0.4,1.1-0.5,1.7
		c-0.1,0.6-0.2,1.2-0.2,1.8c0,0.6,0,1.2,0,1.8s0,1.2,0,1.8c0,0.6,0.1,1.2,0.2,1.8c0.1,0.6,0.3,1.1,0.5,1.7c0.2,0.5,0.5,1,0.9,1.4
		c0.4,0.4,0.9,0.7,1.4,0.9s1.3,0.3,2.1,0.3c0.8,0,1.5-0.1,2.1-0.3c0.6-0.2,1.1-0.5,1.4-0.9c0.4-0.4,0.7-0.9,0.9-1.4
		c0.2-0.5,0.4-1.1,0.5-1.7s0.2-1.2,0.2-1.8c0-0.6,0-1.2,0-1.8s0-1.2,0-1.8C466.2,308.9,466.1,308.3,466,307.7z M464.2,313.3
		c0,0.7-0.2,1.4-0.4,2.1c-0.2,0.6-0.5,1.2-1,1.6c-0.4,0.4-1.1,0.7-1.9,0.7c-0.8,0-1.4-0.2-1.9-0.7c-0.4-0.4-0.8-1-1-1.6
		s-0.3-1.3-0.4-2.1c0-0.7-0.1-1.4-0.1-2c0-0.4,0-0.8,0-1.3c0-0.5,0-0.9,0.1-1.4c0.1-0.5,0.2-0.9,0.3-1.4c0.1-0.4,0.3-0.8,0.6-1.2
		c0.2-0.3,0.5-0.6,0.9-0.8c0.4-0.2,0.8-0.3,1.4-0.3c0.5,0,1,0.1,1.3,0.3c0.4,0.2,0.7,0.5,0.9,0.8c0.2,0.3,0.4,0.7,0.6,1.2
		c0.1,0.4,0.2,0.9,0.3,1.4c0.1,0.5,0.1,0.9,0.1,1.4c0,0.5,0,0.9,0,1.3C464.3,311.9,464.2,312.5,464.2,313.3z"/>
	<path fill="#FFFFFF" d="M252.7,270.5c-0.1-0.6-0.3-1.2-0.5-1.7c-0.2-0.5-0.5-1-0.9-1.4c-0.4-0.4-0.9-0.7-1.4-1
		c-0.6-0.2-1.3-0.4-2.1-0.4c-0.8,0-1.5,0.1-2.1,0.4c-0.6,0.2-1.1,0.6-1.4,1c-0.4,0.4-0.7,0.9-0.9,1.4c-0.2,0.5-0.4,1.1-0.5,1.7
		c-0.1,0.6-0.2,1.2-0.2,1.8c0,0.6,0,1.2,0,1.8s0,1.2,0,1.8c0,0.6,0.1,1.2,0.2,1.8c0.1,0.6,0.3,1.1,0.5,1.7c0.2,0.5,0.5,1,0.9,1.4
		c0.4,0.4,0.9,0.7,1.4,0.9s1.3,0.3,2.1,0.3c0.8,0,1.5-0.1,2.1-0.3c0.6-0.2,1.1-0.5,1.4-0.9c0.4-0.4,0.7-0.9,0.9-1.4
		c0.2-0.5,0.4-1.1,0.5-1.7s0.2-1.2,0.2-1.8c0-0.6,0-1.2,0-1.8s0-1.2,0-1.8C252.9,271.7,252.9,271.1,252.7,270.5z M251,276.1
		c0,0.7-0.2,1.4-0.4,2.1c-0.2,0.6-0.5,1.2-1,1.6c-0.4,0.4-1.1,0.7-1.9,0.7c-0.8,0-1.4-0.2-1.9-0.7c-0.4-0.4-0.8-1-1-1.6
		s-0.3-1.3-0.4-2.1c0-0.7-0.1-1.4-0.1-2c0-0.4,0-0.8,0-1.3c0-0.5,0-0.9,0.1-1.4c0.1-0.5,0.2-0.9,0.3-1.4c0.1-0.4,0.3-0.8,0.6-1.2
		c0.2-0.3,0.5-0.6,0.9-0.8c0.4-0.2,0.8-0.3,1.4-0.3c0.5,0,1,0.1,1.3,0.3c0.4,0.2,0.7,0.5,0.9,0.8c0.2,0.3,0.4,0.7,0.6,1.2
		c0.1,0.4,0.2,0.9,0.3,1.4c0.1,0.5,0.1,0.9,0.1,1.4c0,0.5,0,0.9,0,1.3C251,274.7,251,275.4,251,276.1z"/>
	<path fill="#FFFFFF" d="M261.1,267.6c-0.3,0.4-0.6,0.7-1,0.9s-0.9,0.4-1.4,0.5c-0.5,0.1-1,0.1-1.5,0.1v1.5h4.1v11.2h1.9v-15.7h-1.4
		C261.6,266.8,261.4,267.2,261.1,267.6z"/>
	<path fill="#FFFFFF" d="M276.8,281.8v-15.7h-1.4c-0.1,0.6-0.3,1.1-0.6,1.5c-0.3,0.4-0.6,0.7-1,0.9s-0.9,0.4-1.4,0.5
		c-0.5,0.1-1,0.1-1.5,0.1v1.5h4.1v11.2H276.8z"/>
	<path fill="#FFFFFF" d="M284.2,279.4c0.2,0.5,0.5,1,0.9,1.4c0.4,0.4,0.9,0.7,1.4,0.9s1.3,0.3,2.1,0.3c0.8,0,1.5-0.1,2.1-0.3
		c0.6-0.2,1.1-0.5,1.4-0.9c0.4-0.4,0.7-0.9,0.9-1.4c0.2-0.5,0.4-1.1,0.5-1.7s0.2-1.2,0.2-1.8c0-0.6,0-1.2,0-1.8s0-1.2,0-1.8
		c0-0.6-0.1-1.2-0.2-1.8s-0.3-1.2-0.5-1.7c-0.2-0.5-0.5-1-0.9-1.4c-0.4-0.4-0.9-0.7-1.4-1c-0.6-0.2-1.3-0.4-2.1-0.4
		c-0.8,0-1.5,0.1-2.1,0.4c-0.6,0.2-1.1,0.6-1.4,1c-0.4,0.4-0.7,0.9-0.9,1.4c-0.2,0.5-0.4,1.1-0.5,1.7c-0.1,0.6-0.2,1.2-0.2,1.8
		c0,0.6,0,1.2,0,1.8s0,1.2,0,1.8c0,0.6,0.1,1.2,0.2,1.8C283.8,278.3,284,278.9,284.2,279.4z M285.5,272.9c0-0.5,0-0.9,0.1-1.4
		c0.1-0.5,0.2-0.9,0.3-1.4c0.1-0.4,0.3-0.8,0.6-1.2c0.2-0.3,0.5-0.6,0.9-0.8c0.4-0.2,0.8-0.3,1.4-0.3c0.5,0,1,0.1,1.3,0.3
		c0.4,0.2,0.7,0.5,0.9,0.8c0.2,0.3,0.4,0.7,0.6,1.2c0.1,0.4,0.2,0.9,0.3,1.4c0.1,0.5,0.1,0.9,0.1,1.4c0,0.5,0,0.9,0,1.3
		c0,0.6,0,1.2-0.1,2c0,0.7-0.2,1.4-0.4,2.1c-0.2,0.6-0.5,1.2-1,1.6c-0.4,0.4-1.1,0.7-1.9,0.7c-0.8,0-1.4-0.2-1.9-0.7
		c-0.4-0.4-0.8-1-1-1.6s-0.3-1.3-0.4-2.1c0-0.7-0.1-1.4-0.1-2C285.5,273.7,285.5,273.3,285.5,272.9z"/>
	<path fill="#FFFFFF" d="M304.1,281.8v-15.7h-1.4c-0.1,0.6-0.3,1.1-0.6,1.5c-0.3,0.4-0.6,0.7-1,0.9s-0.9,0.4-1.4,0.5
		c-0.5,0.1-1,0.1-1.5,0.1v1.5h4.1v11.2H304.1z"/>
	<path fill="#FFFFFF" d="M320.9,270.5c-0.1-0.6-0.3-1.2-0.5-1.7c-0.2-0.5-0.5-1-0.9-1.4c-0.4-0.4-0.9-0.7-1.4-1
		c-0.6-0.2-1.3-0.4-2.1-0.4c-0.8,0-1.5,0.1-2.1,0.4c-0.6,0.2-1.1,0.6-1.4,1c-0.4,0.4-0.7,0.9-0.9,1.4c-0.2,0.5-0.4,1.1-0.5,1.7
		c-0.1,0.6-0.2,1.2-0.2,1.8c0,0.6,0,1.2,0,1.8s0,1.2,0,1.8c0,0.6,0.1,1.2,0.2,1.8c0.1,0.6,0.3,1.1,0.5,1.7c0.2,0.5,0.5,1,0.9,1.4
		c0.4,0.4,0.9,0.7,1.4,0.9s1.3,0.3,2.1,0.3c0.8,0,1.5-0.1,2.1-0.3c0.6-0.2,1.1-0.5,1.4-0.9c0.4-0.4,0.7-0.9,0.9-1.4
		c0.2-0.5,0.4-1.1,0.5-1.7s0.2-1.2,0.2-1.8c0-0.6,0-1.2,0-1.8s0-1.2,0-1.8C321.1,271.7,321,271.1,320.9,270.5z M319.1,276.1
		c0,0.7-0.2,1.4-0.4,2.1c-0.2,0.6-0.5,1.2-1,1.6c-0.4,0.4-1.1,0.7-1.9,0.7c-0.8,0-1.4-0.2-1.9-0.7c-0.4-0.4-0.8-1-1-1.6
		s-0.3-1.3-0.4-2.1c0-0.7-0.1-1.4-0.1-2c0-0.4,0-0.8,0-1.3c0-0.5,0-0.9,0.1-1.4c0.1-0.5,0.2-0.9,0.3-1.4c0.1-0.4,0.3-0.8,0.6-1.2
		c0.2-0.3,0.5-0.6,0.9-0.8c0.4-0.2,0.8-0.3,1.4-0.3c0.5,0,1,0.1,1.3,0.3c0.4,0.2,0.7,0.5,0.9,0.8c0.2,0.3,0.4,0.7,0.6,1.2
		c0.1,0.4,0.2,0.9,0.3,1.4c0.1,0.5,0.1,0.9,0.1,1.4c0,0.5,0,0.9,0,1.3C319.2,274.7,319.2,275.4,319.1,276.1z"/>
	<path fill="#FFFFFF" d="M329.3,267.6c-0.3,0.4-0.6,0.7-1,0.9s-0.9,0.4-1.4,0.5c-0.5,0.1-1,0.1-1.5,0.1v1.5h4.1v11.2h1.9v-15.7h-1.4
		C329.8,266.8,329.6,267.2,329.3,267.6z"/>
	<path fill="#FFFFFF" d="M348.2,270.5c-0.1-0.6-0.3-1.2-0.5-1.7c-0.2-0.5-0.5-1-0.9-1.4c-0.4-0.4-0.9-0.7-1.4-1
		c-0.6-0.2-1.3-0.4-2.1-0.4c-0.8,0-1.5,0.1-2.1,0.4c-0.6,0.2-1.1,0.6-1.4,1c-0.4,0.4-0.7,0.9-0.9,1.4c-0.2,0.5-0.4,1.1-0.5,1.7
		c-0.1,0.6-0.2,1.2-0.2,1.8c0,0.6,0,1.2,0,1.8s0,1.2,0,1.8c0,0.6,0.1,1.2,0.2,1.8c0.1,0.6,0.3,1.1,0.5,1.7c0.2,0.5,0.5,1,0.9,1.4
		c0.4,0.4,0.9,0.7,1.4,0.9s1.3,0.3,2.1,0.3c0.8,0,1.5-0.1,2.1-0.3c0.6-0.2,1.1-0.5,1.4-0.9c0.4-0.4,0.7-0.9,0.9-1.4
		c0.2-0.5,0.4-1.1,0.5-1.7s0.2-1.2,0.2-1.8c0-0.6,0-1.2,0-1.8s0-1.2,0-1.8C348.4,271.7,348.3,271.1,348.2,270.5z M346.4,276.1
		c0,0.7-0.2,1.4-0.4,2.1c-0.2,0.6-0.5,1.2-1,1.6c-0.4,0.4-1.1,0.7-1.9,0.7c-0.8,0-1.4-0.2-1.9-0.7c-0.4-0.4-0.8-1-1-1.6
		s-0.3-1.3-0.4-2.1c0-0.7-0.1-1.4-0.1-2c0-0.4,0-0.8,0-1.3c0-0.5,0-0.9,0.1-1.4c0.1-0.5,0.2-0.9,0.3-1.4c0.1-0.4,0.3-0.8,0.6-1.2
		c0.2-0.3,0.5-0.6,0.9-0.8c0.4-0.2,0.8-0.3,1.4-0.3c0.5,0,1,0.1,1.3,0.3c0.4,0.2,0.7,0.5,0.9,0.8c0.2,0.3,0.4,0.7,0.6,1.2
		c0.1,0.4,0.2,0.9,0.3,1.4c0.1,0.5,0.1,0.9,0.1,1.4c0,0.5,0,0.9,0,1.3C346.5,274.7,346.4,275.4,346.4,276.1z"/>
	<path fill="#FFFFFF" d="M358.6,281.8v-15.7h-1.4c-0.1,0.6-0.3,1.1-0.6,1.5c-0.3,0.4-0.6,0.7-1,0.9s-0.9,0.4-1.4,0.5
		c-0.5,0.1-1,0.1-1.5,0.1v1.5h4.1v11.2H358.6z"/>
	<path fill="#FFFFFF" d="M370.2,267.6c-0.3,0.4-0.6,0.7-1,0.9s-0.9,0.4-1.4,0.5c-0.5,0.1-1,0.1-1.5,0.1v1.5h4.1v11.2h1.9v-15.7h-1.4
		C370.7,266.8,370.5,267.2,370.2,267.6z"/>
	<path fill="#FFFFFF" d="M389.3,275.9c0-0.6,0-1.2,0-1.8s0-1.2,0-1.8c0-0.6-0.1-1.2-0.2-1.8s-0.3-1.2-0.5-1.7
		c-0.2-0.5-0.5-1-0.9-1.4c-0.4-0.4-0.9-0.7-1.4-1c-0.6-0.2-1.3-0.4-2.1-0.4c-0.8,0-1.5,0.1-2.1,0.4c-0.6,0.2-1.1,0.6-1.4,1
		c-0.4,0.4-0.7,0.9-0.9,1.4c-0.2,0.5-0.4,1.1-0.5,1.7c-0.1,0.6-0.2,1.2-0.2,1.8c0,0.6,0,1.2,0,1.8s0,1.2,0,1.8
		c0,0.6,0.1,1.2,0.2,1.8c0.1,0.6,0.3,1.1,0.5,1.7c0.2,0.5,0.5,1,0.9,1.4c0.4,0.4,0.9,0.7,1.4,0.9s1.3,0.3,2.1,0.3
		c0.8,0,1.5-0.1,2.1-0.3c0.6-0.2,1.1-0.5,1.4-0.9c0.4-0.4,0.7-0.9,0.9-1.4c0.2-0.5,0.4-1.1,0.5-1.7S389.3,276.6,389.3,275.9z
		 M387.3,276.1c0,0.7-0.2,1.4-0.4,2.1c-0.2,0.6-0.5,1.2-1,1.6c-0.4,0.4-1.1,0.7-1.9,0.7c-0.8,0-1.4-0.2-1.9-0.7
		c-0.4-0.4-0.8-1-1-1.6s-0.3-1.3-0.4-2.1c0-0.7-0.1-1.4-0.1-2c0-0.4,0-0.8,0-1.3c0-0.5,0-0.9,0.1-1.4c0.1-0.5,0.2-0.9,0.3-1.4
		c0.1-0.4,0.3-0.8,0.6-1.2c0.2-0.3,0.5-0.6,0.9-0.8c0.4-0.2,0.8-0.3,1.4-0.3c0.5,0,1,0.1,1.3,0.3c0.4,0.2,0.7,0.5,0.9,0.8
		c0.2,0.3,0.4,0.7,0.6,1.2c0.1,0.4,0.2,0.9,0.3,1.4c0.1,0.5,0.1,0.9,0.1,1.4c0,0.5,0,0.9,0,1.3C387.4,274.7,387.3,275.4,387.3,276.1
		z"/>
	<path fill="#FFFFFF" d="M397.5,267.6c-0.3,0.4-0.6,0.7-1,0.9s-0.9,0.4-1.4,0.5c-0.5,0.1-1,0.1-1.5,0.1v1.5h4.1v11.2h1.9v-15.7H398
		C397.9,266.8,397.7,267.2,397.5,267.6z"/>
	<path fill="#FFFFFF" d="M416.6,275.9c0-0.6,0-1.2,0-1.8s0-1.2,0-1.8c0-0.6-0.1-1.2-0.2-1.8s-0.3-1.2-0.5-1.7
		c-0.2-0.5-0.5-1-0.9-1.4c-0.4-0.4-0.9-0.7-1.4-1c-0.6-0.2-1.3-0.4-2.1-0.4c-0.8,0-1.5,0.1-2.1,0.4c-0.6,0.2-1.1,0.6-1.4,1
		c-0.4,0.4-0.7,0.9-0.9,1.4c-0.2,0.5-0.4,1.1-0.5,1.7c-0.1,0.6-0.2,1.2-0.2,1.8c0,0.6,0,1.2,0,1.8s0,1.2,0,1.8
		c0,0.6,0.1,1.2,0.2,1.8c0.1,0.6,0.3,1.1,0.5,1.7c0.2,0.5,0.5,1,0.9,1.4c0.4,0.4,0.9,0.7,1.4,0.9s1.3,0.3,2.1,0.3
		c0.8,0,1.5-0.1,2.1-0.3c0.6-0.2,1.1-0.5,1.4-0.9c0.4-0.4,0.7-0.9,0.9-1.4c0.2-0.5,0.4-1.1,0.5-1.7S416.5,276.6,416.6,275.9z
		 M414.6,276.1c0,0.7-0.2,1.4-0.4,2.1c-0.2,0.6-0.5,1.2-1,1.6c-0.4,0.4-1.1,0.7-1.9,0.7c-0.8,0-1.4-0.2-1.9-0.7
		c-0.4-0.4-0.8-1-1-1.6s-0.3-1.3-0.4-2.1c0-0.7-0.1-1.4-0.1-2c0-0.4,0-0.8,0-1.3c0-0.5,0-0.9,0.1-1.4c0.1-0.5,0.2-0.9,0.3-1.4
		c0.1-0.4,0.3-0.8,0.6-1.2c0.2-0.3,0.5-0.6,0.9-0.8c0.4-0.2,0.8-0.3,1.4-0.3c0.5,0,1,0.1,1.3,0.3c0.4,0.2,0.7,0.5,0.9,0.8
		c0.2,0.3,0.4,0.7,0.6,1.2c0.1,0.4,0.2,0.9,0.3,1.4c0.1,0.5,0.1,0.9,0.1,1.4c0,0.5,0,0.9,0,1.3C414.6,274.7,414.6,275.4,414.6,276.1
		z"/>
	<path fill="#FFFFFF" d="M424.7,267.6c-0.3,0.4-0.6,0.7-1,0.9s-0.9,0.4-1.4,0.5c-0.5,0.1-1,0.1-1.5,0.1v1.5h4.1v11.2h1.9v-15.7h-1.4
		C425.2,266.8,425,267.2,424.7,267.6z"/>
	<path fill="#FFFFFF" d="M443.8,275.9c0-0.6,0-1.2,0-1.8s0-1.2,0-1.8c0-0.6-0.1-1.2-0.2-1.8s-0.3-1.2-0.5-1.7
		c-0.2-0.5-0.5-1-0.9-1.4c-0.4-0.4-0.9-0.7-1.4-1c-0.6-0.2-1.3-0.4-2.1-0.4c-0.8,0-1.5,0.1-2.1,0.4c-0.6,0.2-1.1,0.6-1.4,1
		c-0.4,0.4-0.7,0.9-0.9,1.4c-0.2,0.5-0.4,1.1-0.5,1.7c-0.1,0.6-0.2,1.2-0.2,1.8c0,0.6,0,1.2,0,1.8s0,1.2,0,1.8
		c0,0.6,0.1,1.2,0.2,1.8c0.1,0.6,0.3,1.1,0.5,1.7c0.2,0.5,0.5,1,0.9,1.4c0.4,0.4,0.9,0.7,1.4,0.9s1.3,0.3,2.1,0.3
		c0.8,0,1.5-0.1,2.1-0.3c0.6-0.2,1.1-0.5,1.4-0.9c0.4-0.4,0.7-0.9,0.9-1.4c0.2-0.5,0.4-1.1,0.5-1.7S443.8,276.6,443.8,275.9z
		 M441.8,276.1c0,0.7-0.2,1.4-0.4,2.1c-0.2,0.6-0.5,1.2-1,1.6c-0.4,0.4-1.1,0.7-1.9,0.7c-0.8,0-1.4-0.2-1.9-0.7
		c-0.4-0.4-0.8-1-1-1.6s-0.3-1.3-0.4-2.1c0-0.7-0.1-1.4-0.1-2c0-0.4,0-0.8,0-1.3c0-0.5,0-0.9,0.1-1.4c0.1-0.5,0.2-0.9,0.3-1.4
		c0.1-0.4,0.3-0.8,0.6-1.2c0.2-0.3,0.5-0.6,0.9-0.8c0.4-0.2,0.8-0.3,1.4-0.3c0.5,0,1,0.1,1.3,0.3c0.4,0.2,0.7,0.5,0.9,0.8
		c0.2,0.3,0.4,0.7,0.6,1.2c0.1,0.4,0.2,0.9,0.3,1.4c0.1,0.5,0.1,0.9,0.1,1.4c0,0.5,0,0.9,0,1.3C441.9,274.7,441.9,275.4,441.8,276.1
		z"/>
	<path fill="#FFFFFF" d="M452,267.6c-0.3,0.4-0.6,0.7-1,0.9s-0.9,0.4-1.4,0.5c-0.5,0.1-1,0.1-1.5,0.1v1.5h4.1v11.2h1.9v-15.7h-1.4
		C452.5,266.8,452.3,267.2,452,267.6z"/>
	<path fill="#FFFFFF" d="M470.9,270.5c-0.1-0.6-0.3-1.2-0.5-1.7c-0.2-0.5-0.5-1-0.9-1.4c-0.4-0.4-0.9-0.7-1.4-1
		c-0.6-0.2-1.3-0.4-2.1-0.4c-0.8,0-1.5,0.1-2.1,0.4c-0.6,0.2-1.1,0.6-1.4,1c-0.4,0.4-0.7,0.9-0.9,1.4c-0.2,0.5-0.4,1.1-0.5,1.7
		c-0.1,0.6-0.2,1.2-0.2,1.8c0,0.6,0,1.2,0,1.8s0,1.2,0,1.8c0,0.6,0.1,1.2,0.2,1.8c0.1,0.6,0.3,1.1,0.5,1.7c0.2,0.5,0.5,1,0.9,1.4
		c0.4,0.4,0.9,0.7,1.4,0.9s1.3,0.3,2.1,0.3c0.8,0,1.5-0.1,2.1-0.3c0.6-0.2,1.1-0.5,1.4-0.9c0.4-0.4,0.7-0.9,0.9-1.4
		c0.2-0.5,0.4-1.1,0.5-1.7s0.2-1.2,0.2-1.8c0-0.6,0-1.2,0-1.8s0-1.2,0-1.8C471.1,271.7,471,271.1,470.9,270.5z M469.1,276.1
		c0,0.7-0.2,1.4-0.4,2.1c-0.2,0.6-0.5,1.2-1,1.6c-0.4,0.4-1.1,0.7-1.9,0.7c-0.8,0-1.4-0.2-1.9-0.7c-0.4-0.4-0.8-1-1-1.6
		s-0.3-1.3-0.4-2.1c0-0.7-0.1-1.4-0.1-2c0-0.4,0-0.8,0-1.3c0-0.5,0-0.9,0.1-1.4c0.1-0.5,0.2-0.9,0.3-1.4c0.1-0.4,0.3-0.8,0.6-1.2
		c0.2-0.3,0.5-0.6,0.9-0.8c0.4-0.2,0.8-0.3,1.4-0.3c0.5,0,1,0.1,1.3,0.3c0.4,0.2,0.7,0.5,0.9,0.8c0.2,0.3,0.4,0.7,0.6,1.2
		c0.1,0.4,0.2,0.9,0.3,1.4c0.1,0.5,0.1,0.9,0.1,1.4c0,0.5,0,0.9,0,1.3C469.2,274.7,469.1,275.4,469.1,276.1z"/>
	<path fill="#FFFFFF" d="M352.8,0H242.5c-11,0-19.9,8.9-19.9,19.9v154.8c0,11,8.9,19.9,19.9,19.9h110.3c11,0,19.9-8.9,19.9-19.9
		V19.9C372.7,8.9,363.8,0,352.8,0z M365.7,174.7c0,7.1-5.8,12.9-12.9,12.9H242.5c-7.1,0-12.9-5.8-12.9-12.9V19.9
		c0-7.1,5.8-12.9,12.9-12.9h110.3c7.1,0,12.9,5.8,12.9,12.9V174.7z"/>
	<path fill="#FFFFFF" d="M343.6,11.6h-91.8c-9.5,0-17.1,7.5-17.1,16.6v124.1c0,9.2,7.7,16.6,17.1,16.6h91.8
		c9.5,0,17.1-7.5,17.1-16.6V28.3C360.7,19.1,353.1,11.6,343.6,11.6z M353.7,152.4c0,5.3-4.6,9.6-10.1,9.6h-91.8
		c-5.6,0-10.1-4.3-10.1-9.6V28.3c0-5.3,4.6-9.6,10.1-9.6h91.8c5.6,0,10.1,4.3,10.1,9.6V152.4z"/>
	<path fill="#FFFFFF" d="M311.1,175.5h-26.9c-1.9,0-3.5,1.6-3.5,3.5s1.6,3.5,3.5,3.5h26.9c1.9,0,3.5-1.6,3.5-3.5
		S313,175.5,311.1,175.5z"/>
	<path fill="#FFFFFF" d="M205.4,215.6H13.2c-7.3,0-13.2,5.9-13.2,13.2v116.1c0,7.3,5.9,13.2,13.2,13.2h192.3
		c7.3,0,13.2-5.9,13.2-13.2V228.7C218.6,221.5,212.7,215.6,205.4,215.6z M211.6,344.8c0,3.4-2.8,6.2-6.2,6.2H13.2
		c-3.4,0-6.2-2.8-6.2-6.2V228.7c0-3.4,2.8-6.2,6.2-6.2h192.3c3.4,0,6.2,2.8,6.2,6.2V344.8z"/>
	<path fill="#FFFFFF" d="M194.5,228.6H24.2c-6.2,0-11.3,5.1-11.3,11.3v94c0,6.2,5.1,11.3,11.3,11.3h170.3c6.2,0,11.3-5.1,11.3-11.3
		v-94C205.8,233.7,200.7,228.6,194.5,228.6z M198.8,333.9c0,2.4-1.9,4.3-4.3,4.3H24.2c-2.4,0-4.3-1.9-4.3-4.3v-94
		c0-2.4,1.9-4.3,4.3-4.3h170.3c2.4,0,4.3,1.9,4.3,4.3V333.9z"/>
	<path fill="#FFFFFF" d="M169.5,364.6H48.3c-1.9,0-3.5,1.6-3.5,3.5s1.6,3.5,3.5,3.5h121.2c1.9,0,3.5-1.6,3.5-3.5
		S171.4,364.6,169.5,364.6z"/>
	<path fill="#FFFFFF" d="M350.7,419.2h-61.3c-7.3,0-13.3,5.9-13.3,13.3v135.3c0,7.3,5.9,13.3,13.3,13.3h61.3
		c7.3,0,13.3-5.9,13.3-13.3V432.4C363.9,425.1,358,419.2,350.7,419.2z M356.9,567.7c0,3.5-2.8,6.3-6.3,6.3h-61.3
		c-3.5,0-6.3-2.8-6.3-6.3V432.4c0-3.5,2.8-6.3,6.3-6.3h61.3c3.5,0,6.3,2.8,6.3,6.3V567.7z"/>
	<path fill="#FFFFFF" d="M342.1,429.4h-45.6c-5.9,0-10.8,4.8-10.8,10.8v100.8c0,5.9,4.8,10.8,10.8,10.8h45.6
		c5.9,0,10.8-4.8,10.8-10.8V440.1C352.9,434.2,348,429.4,342.1,429.4z M345.9,540.9c0,2.1-1.7,3.8-3.8,3.8h-45.6
		c-2.1,0-3.8-1.7-3.8-3.8V440.1c0-2.1,1.7-3.8,3.8-3.8h45.6c2.1,0,3.8,1.7,3.8,3.8V540.9z"/>
	<circle fill="#FFFFFF" cx="320.4" cy="563.2" r="7.6"/>
	<path fill="#FFFFFF" d="M852.6,385.7c-0.1-0.6-0.3-1.2-0.5-1.7c-0.2-0.5-0.5-1-0.9-1.4c-0.4-0.4-0.9-0.7-1.4-1
		c-0.6-0.2-1.3-0.4-2.1-0.4c-0.8,0-1.5,0.1-2.1,0.4c-0.6,0.2-1.1,0.6-1.4,1s-0.7,0.9-0.9,1.4c-0.2,0.5-0.4,1.1-0.5,1.7
		s-0.2,1.2-0.2,1.8c0,0.6,0,1.2,0,1.8s0,1.2,0,1.8c0,0.6,0.1,1.2,0.2,1.8s0.3,1.1,0.5,1.7c0.2,0.5,0.5,1,0.9,1.4
		c0.4,0.4,0.9,0.7,1.4,0.9s1.3,0.3,2.1,0.3c0.8,0,1.5-0.1,2.1-0.3c0.6-0.2,1.1-0.5,1.4-0.9c0.4-0.4,0.7-0.9,0.9-1.4
		c0.2-0.5,0.4-1.1,0.5-1.7c0.1-0.6,0.2-1.2,0.2-1.8c0-0.6,0-1.2,0-1.8s0-1.2,0-1.8C852.8,386.9,852.7,386.3,852.6,385.7z
		 M850.8,391.2c0,0.7-0.2,1.4-0.4,2.1s-0.5,1.2-1,1.6c-0.4,0.4-1.1,0.7-1.9,0.7s-1.4-0.2-1.9-0.7c-0.4-0.4-0.8-1-1-1.6
		s-0.3-1.3-0.4-2.1c0-0.7-0.1-1.4-0.1-2c0-0.4,0-0.8,0-1.3c0-0.5,0-0.9,0.1-1.4c0.1-0.5,0.2-0.9,0.3-1.4c0.1-0.4,0.3-0.8,0.6-1.2
		c0.2-0.3,0.5-0.6,0.9-0.8c0.4-0.2,0.8-0.3,1.3-0.3s1,0.1,1.3,0.3c0.4,0.2,0.7,0.5,0.9,0.8c0.2,0.3,0.4,0.7,0.6,1.2
		c0.1,0.4,0.2,0.9,0.3,1.4c0.1,0.5,0.1,0.9,0.1,1.4c0,0.5,0,0.9,0,1.3C850.9,389.9,850.8,390.5,850.8,391.2z"/>
	<path fill="#FFFFFF" d="M839,385.7c-0.1-0.6-0.3-1.2-0.5-1.7c-0.2-0.5-0.5-1-0.9-1.4c-0.4-0.4-0.9-0.7-1.4-1
		c-0.6-0.2-1.3-0.4-2.1-0.4c-0.8,0-1.5,0.1-2.1,0.4c-0.6,0.2-1.1,0.6-1.4,1s-0.7,0.9-0.9,1.4c-0.2,0.5-0.4,1.1-0.5,1.7
		s-0.2,1.2-0.2,1.8c0,0.6,0,1.2,0,1.8s0,1.2,0,1.8c0,0.6,0.1,1.2,0.2,1.8s0.3,1.1,0.5,1.7c0.2,0.5,0.5,1,0.9,1.4
		c0.4,0.4,0.9,0.7,1.4,0.9s1.3,0.3,2.1,0.3c0.8,0,1.5-0.1,2.1-0.3c0.6-0.2,1.1-0.5,1.4-0.9c0.4-0.4,0.7-0.9,0.9-1.4
		c0.2-0.5,0.4-1.1,0.5-1.7c0.1-0.6,0.2-1.2,0.2-1.8c0-0.6,0-1.2,0-1.8s0-1.2,0-1.8C839.2,386.9,839.1,386.3,839,385.7z M837.2,391.2
		c0,0.7-0.2,1.4-0.4,2.1s-0.5,1.2-1,1.6c-0.4,0.4-1.1,0.7-1.9,0.7s-1.4-0.2-1.9-0.7c-0.4-0.4-0.8-1-1-1.6s-0.3-1.3-0.4-2.1
		c0-0.7-0.1-1.4-0.1-2c0-0.4,0-0.8,0-1.3c0-0.5,0-0.9,0.1-1.4c0.1-0.5,0.2-0.9,0.3-1.4c0.1-0.4,0.3-0.8,0.6-1.2
		c0.2-0.3,0.5-0.6,0.9-0.8c0.4-0.2,0.8-0.3,1.3-0.3s1,0.1,1.3,0.3c0.4,0.2,0.7,0.5,0.9,0.8c0.2,0.3,0.4,0.7,0.6,1.2
		c0.1,0.4,0.2,0.9,0.3,1.4c0.1,0.5,0.1,0.9,0.1,1.4c0,0.5,0,0.9,0,1.3C837.2,389.9,837.2,390.5,837.2,391.2z"/>
	<path fill="#FFFFFF" d="M825.3,385.7c-0.1-0.6-0.3-1.2-0.5-1.7c-0.2-0.5-0.5-1-0.9-1.4c-0.4-0.4-0.9-0.7-1.4-1
		c-0.6-0.2-1.3-0.4-2.1-0.4c-0.8,0-1.5,0.1-2.1,0.4c-0.6,0.2-1.1,0.6-1.4,1s-0.7,0.9-0.9,1.4c-0.2,0.5-0.4,1.1-0.5,1.7
		s-0.2,1.2-0.2,1.8c0,0.6,0,1.2,0,1.8s0,1.2,0,1.8c0,0.6,0.1,1.2,0.2,1.8s0.3,1.1,0.5,1.7c0.2,0.5,0.5,1,0.9,1.4
		c0.4,0.4,0.9,0.7,1.4,0.9s1.3,0.3,2.1,0.3c0.8,0,1.5-0.1,2.1-0.3c0.6-0.2,1.1-0.5,1.4-0.9c0.4-0.4,0.7-0.9,0.9-1.4
		c0.2-0.5,0.4-1.1,0.5-1.7c0.1-0.6,0.2-1.2,0.2-1.8c0-0.6,0-1.2,0-1.8s0-1.2,0-1.8C825.5,386.9,825.4,386.3,825.3,385.7z
		 M823.5,391.2c0,0.7-0.2,1.4-0.4,2.1s-0.5,1.2-1,1.6c-0.4,0.4-1.1,0.7-1.9,0.7s-1.4-0.2-1.9-0.7c-0.4-0.4-0.8-1-1-1.6
		s-0.3-1.3-0.4-2.1c0-0.7-0.1-1.4-0.1-2c0-0.4,0-0.8,0-1.3c0-0.5,0-0.9,0.1-1.4c0.1-0.5,0.2-0.9,0.3-1.4c0.1-0.4,0.3-0.8,0.6-1.2
		c0.2-0.3,0.5-0.6,0.9-0.8c0.4-0.2,0.8-0.3,1.3-0.3s1,0.1,1.3,0.3c0.4,0.2,0.7,0.5,0.9,0.8c0.2,0.3,0.4,0.7,0.6,1.2
		c0.1,0.4,0.2,0.9,0.3,1.4c0.1,0.5,0.1,0.9,0.1,1.4c0,0.5,0,0.9,0,1.3C823.6,389.9,823.6,390.5,823.5,391.2z"/>
	<path fill="#FFFFFF" d="M808,383.7c-0.4-0.2-0.7-0.5-1-0.9c-0.3-0.4-0.5-0.9-0.6-1.5H805V397h1.9v-11.2h4.1v-1.5
		c-0.5,0-1,0-1.5-0.1C808.9,384,808.4,383.9,808,383.7z"/>
	<path fill="#FFFFFF" d="M794.4,383.7c-0.4-0.2-0.7-0.5-1-0.9c-0.3-0.4-0.5-0.9-0.6-1.5h-1.4V397h1.9v-11.2h4.1v-1.5
		c-0.5,0-1,0-1.5-0.1C795.3,384,794.8,383.9,794.4,383.7z"/>
	<path fill="#FFFFFF" d="M784.4,385.7c-0.1-0.6-0.3-1.2-0.5-1.7c-0.2-0.5-0.5-1-0.9-1.4c-0.4-0.4-0.9-0.7-1.4-1
		c-0.6-0.2-1.3-0.4-2.1-0.4c-0.8,0-1.5,0.1-2.1,0.4c-0.6,0.2-1.1,0.6-1.4,1s-0.7,0.9-0.9,1.4c-0.2,0.5-0.4,1.1-0.5,1.7
		s-0.2,1.2-0.2,1.8c0,0.6,0,1.2,0,1.8s0,1.2,0,1.8c0,0.6,0.1,1.2,0.2,1.8s0.3,1.1,0.5,1.7c0.2,0.5,0.5,1,0.9,1.4
		c0.4,0.4,0.9,0.7,1.4,0.9s1.3,0.3,2.1,0.3c0.8,0,1.5-0.1,2.1-0.3c0.6-0.2,1.1-0.5,1.4-0.9c0.4-0.4,0.7-0.9,0.9-1.4
		c0.2-0.5,0.4-1.1,0.5-1.7c0.1-0.6,0.2-1.2,0.2-1.8c0-0.6,0-1.2,0-1.8s0-1.2,0-1.8C784.6,386.9,784.5,386.3,784.4,385.7z
		 M782.6,391.2c0,0.7-0.2,1.4-0.4,2.1s-0.5,1.2-1,1.6c-0.4,0.4-1.1,0.7-1.9,0.7s-1.4-0.2-1.9-0.7c-0.4-0.4-0.8-1-1-1.6
		s-0.3-1.3-0.4-2.1c0-0.7-0.1-1.4-0.1-2c0-0.4,0-0.8,0-1.3c0-0.5,0-0.9,0.1-1.4c0.1-0.5,0.2-0.9,0.3-1.4c0.1-0.4,0.3-0.8,0.6-1.2
		c0.2-0.3,0.5-0.6,0.9-0.8c0.4-0.2,0.8-0.3,1.3-0.3s1,0.1,1.3,0.3c0.4,0.2,0.7,0.5,0.9,0.8c0.2,0.3,0.4,0.7,0.6,1.2
		c0.1,0.4,0.2,0.9,0.3,1.4c0.1,0.5,0.1,0.9,0.1,1.4c0,0.5,0,0.9,0,1.3C782.7,389.9,782.7,390.5,782.6,391.2z"/>
	<path fill="#FFFFFF" d="M769.1,382.1c-0.2-0.4-0.4-0.8-0.5-1.3c-0.1-0.5,0-1,0.2-1.6l-1.3-0.7l-7.5,13.8l1.6,0.9l5.4-9.9l3.6,2
		l0.7-1.3c-0.5-0.3-0.9-0.5-1.3-0.9C769.7,382.9,769.4,382.5,769.1,382.1z"/>
	<path fill="#FFFFFF" d="M763.3,378.1c0.5-0.2,1-0.5,1.4-0.9c0.4-0.4,0.7-0.9,1-1.4c0.2-0.6,0.4-1.3,0.4-2.1c0-0.8-0.1-1.5-0.4-2.1
		c-0.2-0.6-0.6-1.1-1-1.4c-0.4-0.4-0.9-0.7-1.4-0.9s-1.1-0.4-1.7-0.5s-1.2-0.2-1.8-0.2c-0.6,0-1.2,0-1.8,0s-1.2,0-1.8,0
		c-0.6,0-1.2,0.1-1.8,0.2c-0.6,0.1-1.1,0.3-1.7,0.5s-1,0.5-1.4,0.9c-0.4,0.4-0.7,0.9-0.9,1.4c-0.2,0.6-0.3,1.3-0.3,2.1
		c0,0.8,0.1,1.5,0.3,2.1s0.5,1.1,0.9,1.4c0.4,0.4,0.9,0.7,1.4,0.9s1.1,0.4,1.7,0.5c0.6,0.1,1.2,0.2,1.8,0.2c0.6,0,1.2,0,1.8,0
		s1.2,0,1.8,0c0.6,0,1.2-0.1,1.8-0.2C762.2,378.5,762.7,378.3,763.3,378.1z M759.3,376.9c-0.5,0-0.9,0-1.3,0c-0.6,0-1.3,0-2-0.1
		c-0.7,0-1.4-0.2-2.1-0.4c-0.6-0.2-1.2-0.5-1.6-1s-0.7-1.1-0.7-1.9c0-0.8,0.2-1.4,0.7-1.9s1-0.8,1.6-1c0.6-0.2,1.3-0.3,2.1-0.4
		c0.7,0,1.4-0.1,2-0.1c0.4,0,0.8,0,1.3,0c0.5,0,0.9,0,1.4,0.1c0.5,0.1,0.9,0.2,1.4,0.3s0.8,0.3,1.2,0.6c0.3,0.2,0.6,0.5,0.8,0.9
		c0.2,0.4,0.3,0.8,0.3,1.3c0,0.5-0.1,1-0.3,1.4c-0.2,0.4-0.5,0.7-0.8,0.9c-0.3,0.2-0.7,0.4-1.2,0.6c-0.4,0.1-0.9,0.2-1.4,0.3
		S759.7,376.9,759.3,376.9z"/>
	<path fill="#FFFFFF" d="M763,364.3c0-0.5,0-1,0.1-1.5c0.1-0.5,0.2-1,0.5-1.4s0.5-0.7,0.9-1c0.4-0.3,0.9-0.5,1.5-0.6v-1.4h-15.7v1.9
		h11.2v4.1H763z"/>
	<path fill="#FFFFFF" d="M765.6,344.3c-0.2-0.6-0.6-1.1-1-1.4c-0.4-0.4-0.9-0.7-1.4-0.9s-1.1-0.4-1.7-0.5s-1.2-0.2-1.8-0.2
		c-0.6,0-1.2,0-1.8,0s-1.2,0-1.8,0c-0.6,0-1.2,0.1-1.8,0.2c-0.6,0.1-1.1,0.3-1.7,0.5s-1,0.5-1.4,0.9c-0.4,0.4-0.7,0.9-0.9,1.4
		c-0.2,0.6-0.3,1.3-0.3,2.1c0,0.8,0.1,1.5,0.3,2.1s0.5,1.1,0.9,1.4c0.4,0.4,0.9,0.7,1.4,0.9s1.1,0.4,1.7,0.5
		c0.6,0.1,1.2,0.2,1.8,0.2c0.6,0,1.2,0,1.8,0s1.2,0,1.8,0c0.6,0,1.2-0.1,1.8-0.2c0.6-0.1,1.2-0.3,1.7-0.5s1-0.5,1.4-0.9
		c0.4-0.4,0.7-0.9,1-1.4c0.2-0.6,0.4-1.3,0.4-2.1C766,345.6,765.9,344.9,765.6,344.3z M764,347.7c-0.2,0.4-0.5,0.7-0.8,0.9
		c-0.3,0.2-0.7,0.4-1.2,0.6c-0.4,0.1-0.9,0.2-1.4,0.3s-0.9,0.1-1.4,0.1c-0.5,0-0.9,0-1.3,0c-0.6,0-1.3,0-2-0.1
		c-0.7,0-1.4-0.2-2.1-0.4c-0.6-0.2-1.2-0.5-1.6-1s-0.7-1.1-0.7-1.9c0-0.8,0.2-1.4,0.7-1.9s1-0.8,1.6-1c0.6-0.2,1.3-0.3,2.1-0.4
		c0.7,0,1.4-0.1,2-0.1c0.4,0,0.8,0,1.3,0c0.5,0,0.9,0,1.4,0.1c0.5,0.1,0.9,0.2,1.4,0.3s0.8,0.3,1.2,0.6c0.3,0.2,0.6,0.5,0.8,0.9
		c0.2,0.4,0.3,0.8,0.3,1.3C764.3,346.9,764.2,347.4,764,347.7z"/>
	<path fill="#FFFFFF" d="M750.3,331.1l0,1.9l11.2-0.1l0,4.1l1.5,0c0-0.5,0-1,0.1-1.5c0.1-0.5,0.2-1,0.4-1.4s0.5-0.8,0.9-1
		c0.4-0.3,0.9-0.5,1.5-0.6l0-1.4L750.3,331.1z"/>
	<path fill="#FFFFFF" d="M760.4,320.1l1.4-0.6c-0.2-0.5-0.4-1-0.6-1.5c-0.1-0.5-0.2-1-0.2-1.4s0.2-0.9,0.4-1.3s0.6-0.8,1.1-1.1
		l-0.6-1.3l-14.2,6.7l0.8,1.7l10.2-4.8L760.4,320.1z"/>
	<path fill="#FFFFFF" d="M748.9,308.6c0.2-0.5,0.5-1.1,0.7-1.6c0.2-0.6,0.4-1.1,0.6-1.7s0.2-1.2,0.3-1.7c0-0.6,0-1.1-0.2-1.6
		s-0.5-1-0.9-1.5c-0.4-0.5-1-0.9-1.7-1.2s-1.4-0.5-2-0.6s-1.2,0-1.7,0.2c-0.5,0.2-1,0.5-1.4,0.9s-0.8,0.8-1.2,1.3
		c-0.4,0.5-0.7,1-1,1.5s-0.6,1.1-0.8,1.6c-0.2,0.5-0.5,1.1-0.7,1.6c-0.2,0.6-0.4,1.1-0.6,1.7s-0.2,1.2-0.3,1.7c0,0.6,0,1.1,0.2,1.6
		s0.5,1,0.9,1.5c0.4,0.5,1,0.9,1.7,1.2c0.7,0.4,1.4,0.5,2,0.6c0.6,0,1.2,0,1.7-0.2c0.5-0.2,1-0.5,1.4-0.9c0.4-0.4,0.8-0.8,1.2-1.3
		c0.4-0.5,0.7-1,1-1.5S748.6,309.2,748.9,308.6z M747.1,307.8c-0.3,0.5-0.6,1.1-0.9,1.8s-0.8,1.2-1.2,1.7s-1,0.8-1.6,1.1
		c-0.6,0.2-1.2,0.1-2-0.2c-0.7-0.3-1.2-0.8-1.4-1.4c-0.2-0.6-0.3-1.2-0.2-1.9s0.3-1.3,0.6-2s0.6-1.3,0.8-1.8
		c0.2-0.3,0.4-0.7,0.6-1.1c0.2-0.4,0.4-0.8,0.7-1.2c0.3-0.4,0.5-0.8,0.8-1.1c0.3-0.3,0.6-0.6,1-0.8c0.4-0.2,0.8-0.3,1.2-0.3
		c0.4,0,0.9,0.1,1.4,0.3c0.5,0.2,0.8,0.5,1.1,0.9s0.4,0.7,0.5,1.1c0.1,0.4,0.1,0.8,0,1.3s-0.2,0.9-0.3,1.4c-0.1,0.4-0.3,0.9-0.5,1.3
		C747.4,307,747.3,307.4,747.1,307.8z"/>
	<path fill="#FFFFFF" d="M730.5,298.1c-0.4-0.2-0.7-0.5-1-0.9c-0.3-0.4-0.5-0.9-0.6-1.5h-1.4v15.7h1.9v-11.2h4.1v-1.5
		c-0.5,0-1,0-1.5-0.1C731.4,298.5,730.9,298.4,730.5,298.1z"/>
	<path fill="#FFFFFF" d="M720.5,300.2c-0.1-0.6-0.3-1.2-0.5-1.7c-0.2-0.5-0.5-1-0.9-1.4c-0.4-0.4-0.9-0.7-1.4-1
		c-0.6-0.2-1.3-0.4-2.1-0.4c-0.8,0-1.5,0.1-2.1,0.4c-0.6,0.2-1.1,0.6-1.4,1c-0.4,0.4-0.7,0.9-0.9,1.4c-0.2,0.5-0.4,1.1-0.5,1.7
		s-0.2,1.2-0.2,1.8c0,0.6,0,1.2,0,1.8s0,1.2,0,1.8c0,0.6,0.1,1.2,0.2,1.8s0.3,1.1,0.5,1.7c0.2,0.5,0.5,1,0.9,1.4
		c0.4,0.4,0.9,0.7,1.4,0.9c0.6,0.2,1.3,0.3,2.1,0.3c0.8,0,1.5-0.1,2.1-0.3s1.1-0.5,1.4-0.9c0.4-0.4,0.7-0.9,0.9-1.4
		c0.2-0.5,0.4-1.1,0.5-1.7c0.1-0.6,0.2-1.2,0.2-1.8c0-0.6,0-1.2,0-1.8s0-1.2,0-1.8C720.7,301.3,720.6,300.7,720.5,300.2z
		 M718.7,305.7c0,0.7-0.2,1.4-0.4,2.1s-0.5,1.2-1,1.6c-0.4,0.4-1.1,0.7-1.9,0.7c-0.8,0-1.4-0.2-1.9-0.7c-0.4-0.4-0.8-1-1-1.6
		c-0.2-0.6-0.3-1.3-0.4-2.1c0-0.7-0.1-1.4-0.1-2c0-0.4,0-0.8,0-1.3c0-0.5,0-0.9,0.1-1.4c0.1-0.5,0.2-0.9,0.3-1.4
		c0.1-0.4,0.3-0.8,0.6-1.2c0.2-0.3,0.5-0.6,0.9-0.8c0.4-0.2,0.8-0.3,1.3-0.3c0.5,0,1,0.1,1.4,0.3c0.4,0.2,0.7,0.5,0.9,0.8
		c0.2,0.3,0.4,0.7,0.6,1.2c0.1,0.4,0.2,0.9,0.3,1.4c0.1,0.5,0.1,0.9,0.1,1.4c0,0.5,0,0.9,0,1.3C718.8,304.3,718.8,305,718.7,305.7z"
		/>
	<path fill="#FFFFFF" d="M703.2,298.1c-0.4-0.2-0.7-0.5-1-0.9c-0.3-0.4-0.5-0.9-0.6-1.5h-1.4v15.7h1.9v-11.2h4.1v-1.5
		c-0.5,0-1,0-1.5-0.1C704.1,298.5,703.7,298.4,703.2,298.1z"/>
	<path fill="#FFFFFF" d="M689.6,298.1c-0.4-0.2-0.7-0.5-1-0.9c-0.3-0.4-0.5-0.9-0.6-1.5h-1.4v15.7h1.9v-11.2h4.1v-1.5
		c-0.5,0-1,0-1.5-0.1C690.5,298.5,690,298.4,689.6,298.1z"/>
</g>
<g>
</g>
</svg>
